2-Building a Memory Hierarchy/e16025_lab6_part3/SCREENSHOTS and VCD files/wavedata_INSTRUCTION_SET_02.vcd
$date
	Sun Jun 21 18:10:04 2020
$end
$version
	GTKWave Analyzer v3.3.100 (w)1999-2019 BSI
$end
$timescale
	100ps
$end
$scope module testbench $end
$var wire 32 % INSTRUCTION[31:0] $end
$var wire 1 5 mem_write $end
$var wire 8 " ADDRESS[7:0] $end
$var wire 1 . RESET $end
$scope module myInsData_Cache $end
$var wire 32 A next_Instuction[31:0] $end
$var wire 1 G validnow $end
$upscope $end
$var wire 1 3 mem_read $end
$scope module myInsData_Cache $end
$var wire 1 > mem_busywait $end
$upscope $end
$var wire 1 ( Insmem_busywait $end
$var wire 1 # BUSYWAIT $end
$var wire 1 $ CLK $end
$var wire 32 4 mem_readdata[31:0] $end
$var wire 32 6 mem_writedata[31:0] $end
$var wire 6 1 mem_address[5:0] $end
$var wire 8 0 WRITEDATA[7:0] $end
$var wire 1 , READ $end
$scope module myInsData_Cache $end
$var wire 10 7 address[9:0] $end
$var wire 1 : clock $end
$var wire 3 F tagIn[2:0] $end
$var wire 128 @ mem_readdata[127:0] $end
$upscope $end
$var wire 128 * Insmem_readdata[127:0] $end
$scope module mycpu $end
$var wire 1 m READ $end
$upscope $end
$var wire 1 2 mem_busywait $end
$scope module myInsData_Cache $end
$var wire 1 D reset $end
$upscope $end
$var wire 1 / WRITE $end
$var wire 8 - READDATA[7:0] $end
$var wire 1 ) Insmem_read $end
$var wire 6 ' Insmem_address[5:0] $end
$var wire 32 + PC[31:0] $end
$var wire 1 & Ins_busywait $end
$scope module myInsData_mem $end
$var wire 6 H address[5:0] $end
$upscope $end
$scope module mycpu $end
$var wire 8 n READDATA[7:0] $end
$upscope $end
$scope module myInsData_mem $end
$var wire 1 J clock $end
$upscope $end
$scope module my_datamem $end
$var wire 1 U reset $end
$var wire 1 R read $end
$var wire 6 N address[5:0] $end
$upscope $end
$scope module mycpu $end
$var wire 1 e MUX3_Select $end
$var wire 1 s WRITEENABLE $end
$upscope $end
$scope module my_datamem $end
$var wire 1 S readaccess $end
$upscope $end
$scope module myInsData_Cache $end
$var wire 32 C readdata[31:0] $end
$upscope $end
$scope module my_datamem $end
$var wire 1 P clock $end
$upscope $end
$scope module myInsData_Cache $end
$var wire 1 ; hit $end
$upscope $end
$scope module myInsData_mem $end
$var wire 1 K read $end
$upscope $end
$scope module my_datamem $end
$var wire 1 V write $end
$upscope $end
$scope module myInsData_Cache $end
$var wire 32 < i $end
$upscope $end
$scope module my_datamem $end
$var wire 32 T readdata[31:0] $end
$upscope $end
$scope module mycpu $end
$var wire 1 ` Ins_busywait $end
$upscope $end
$scope module myInsData_Cache $end
$var wire 1 8 cache_busywait $end
$var wire 6 = mem_address[5:0] $end
$var wire 1 ? mem_read $end
$upscope $end
$scope module mycpu $end
$var wire 8 w offset[7:0] $end
$var wire 1 [ CLK $end
$upscope $end
$scope module myInsData_Cache $end
$var wire 2 B next_state[1:0] $end
$upscope $end
$scope module myInsData_mem $end
$var wire 1 L readaccess $end
$upscope $end
$scope module my_datamem $end
$var wire 32 Q i $end
$var wire 32 X writedata[31:0] $end
$upscope $end
$scope module mycpu $end
$var wire 1 o RESET $end
$var wire 1 v imm_signal $end
$var wire 3 q SELECT[2:0] $end
$var wire 1 t ZERO $end
$upscope $end
$scope module myInsData_mem $end
$var wire 1 I busywait $end
$upscope $end
$scope module myInsData_Cache $end
$var wire 2 E state[1:0] $end
$upscope $end
$scope module myInsData_mem $end
$var wire 128 M readdata[127:0] $end
$upscope $end
$scope module mycpu $end
$var wire 32 ^ INSTRUCTION[31:0] $end
$upscope $end
$scope module my_datamem $end
$var wire 1 W writeaccess $end
$var wire 1 O busywait $end
$upscope $end
$scope module mycpu $end
$var wire 32 x pcnew[31:0] $end
$upscope $end
$scope module myInsData_Cache $end
$var wire 1 9 cache_read $end
$upscope $end
$scope module mycpu $end
$var wire 1 r WRITE $end
$var wire 8 p RESULT[7:0] $end
$var wire 1 u compli_signal $end
$scope module MYalu $end
$var wire 8 3! orres[7:0] $end
$var wire 8 0! addres[7:0] $end
$var wire 3 .! SELECT[2:0] $end
$upscope $end
$var wire 32 l PC[31:0] $end
$scope module MUX1 $end
$var wire 1 | SELECT $end
$upscope $end
$scope module MUX2 $end
$var wire 8 !! OUT[7:0] $end
$upscope $end
$var wire 8 b MUX1OUT[7:0] $end
$var wire 8 c MUX2OUT[7:0] $end
$scope module MUX3 $end
$var wire 32 #! INPUT1[31:0] $end
$upscope $end
$scope module MUX1 $end
$var wire 8 z INPUT2[7:0] $end
$upscope $end
$var wire 32 f Next4plusPC[31:0] $end
$scope module MUX4 $end
$var wire 8 '! INPUT1[7:0] $end
$upscope $end
$var wire 1 Y BRANCH $end
$var wire 1 a JUMP $end
$scope module MUX2 $end
$var wire 1 "! SELECT $end
$upscope $end
$var wire 3 k OUT2address[2:0] $end
$var wire 8 _ Immediate[7:0] $end
$var wire 8 \ DATA2[7:0] $end
$scope module MUX2 $end
$var wire 8 } INPUT1[7:0] $end
$upscope $end
$var wire 3 i OUT1address[2:0] $end
$var wire 32 g NextPC[31:0] $end
$var wire 3 ] IN2address[2:0] $end
$scope module MUX3 $end
$var wire 1 &! SELECT $end
$upscope $end
$scope module mycomp $end
$var wire 8 Z! IN[7:0] $end
$upscope $end
$var wire 8 h OUT1[7:0] $end
$scope module MUX3 $end
$var wire 32 %! OUT[31:0] $end
$upscope $end
$scope module MUX4 $end
$var wire 8 )! OUT[7:0] $end
$upscope $end
$scope module MYalu $end
$var wire 8 ,! DATA2[7:0] $end
$upscope $end
$var wire 8 j OUT2[7:0] $end
$scope module MUX3 $end
$var wire 32 $! INPUT2[31:0] $end
$upscope $end
$scope module MYalu $end
$var wire 1 /! ZERO $end
$upscope $end
$var wire 1 Z BUSYWAIT $end
$scope module MUX1 $end
$var wire 8 y INPUT1[7:0] $end
$upscope $end
$var wire 8 d MUX3OUT[7:0] $end
$scope module MUX1 $end
$var wire 8 { OUT[7:0] $end
$upscope $end
$scope module MUX4 $end
$var wire 1 *! SELECT $end
$var wire 8 (! INPUT2[7:0] $end
$upscope $end
$scope module MYalu $end
$var wire 8 1! andres[7:0] $end
$upscope $end
$scope module MUX2 $end
$var wire 8 ~ INPUT2[7:0] $end
$upscope $end
$scope module MYalu $end
$var wire 8 2! forwadres[7:0] $end
$upscope $end
$scope module MYregister1 $end
$var wire 1 U! WRITEENABLE $end
$upscope $end
$scope module MYcu $end
$var wire 3 :! OUT1address[2:0] $end
$upscope $end
$scope module MYregister1 $end
$var wire 8 P! OUT1[7:0] $end
$var wire 3 S! OUT2address[2:0] $end
$var wire 32 V! i $end
$var wire 1 M! CLK $end
$upscope $end
$scope module MYpcCounter $end
$var wire 1 I! RESET $end
$upscope $end
$scope module MYcu $end
$var wire 1 =! WRITE $end
$upscope $end
$scope module MYpcCounter $end
$var wire 1 F! JUMP $end
$upscope $end
$scope module MYregister1 $end
$var wire 3 Q! OUT1address[2:0] $end
$upscope $end
$scope module PCOffsetter1 $end
$var wire 32 Y! next4pc[31:0] $end
$upscope $end
$scope module MYregister1 $end
$var wire 1 L! BUSYWAIT $end
$upscope $end
$scope module PCOffsetter1 $end
$var wire 32 W! Next4plusPC[31:0] $end
$upscope $end
$scope module MYcu $end
$var wire 32 7! INSTRUCTION[31:0] $end
$upscope $end
$scope module MYpcCounter $end
$var wire 1 E! Ins_busywait $end
$upscope $end
$scope module MYcu $end
$var wire 1 @! imm_signal $end
$var wire 8 8! Immediate[7:0] $end
$upscope $end
$scope module MYalu $end
$var wire 8 +! DATA1[7:0] $end
$upscope $end
$scope module MYpcCounter $end
$var wire 1 C! CLK $end
$var wire 32 H! PC[31:0] $end
$var wire 32 G! NextPC[31:0] $end
$upscope $end
$scope module MYcu $end
$var wire 1 5! BRANCH $end
$var wire 1 ?! compli_signal $end
$var wire 3 ;! OUT2address[2:0] $end
$upscope $end
$scope module PCOffsetter1 $end
$var wire 8 X! OFFSET[7:0] $end
$upscope $end
$scope module MYcu $end
$var wire 8 A! offset[7:0] $end
$var wire 1 >! WRITEENABLE $end
$var wire 3 4! ALUOP[2:0] $end
$upscope $end
$scope module MYpcCounter $end
$var wire 1 B! BUSYWAIT $end
$upscope $end
$scope module MYpcadder $end
$var wire 32 J! NextPC[31:0] $end
$upscope $end
$scope module MYregister1 $end
$var wire 1 T! RESET $end
$var wire 8 R! OUT2[7:0] $end
$var wire 3 N! IN2address[2:0] $end
$upscope $end
$scope module MYcu $end
$var wire 1 <! READ $end
$upscope $end
$scope module MYpcCounter $end
$var wire 32 D! INSTRUCTION[31:0] $end
$upscope $end
$scope module MYcu $end
$var wire 1 9! JUMP $end
$upscope $end
$scope module MYalu $end
$var wire 8 -! RESULT[7:0] $end
$upscope $end
$scope module MYcu $end
$var wire 3 6! IN2address[2:0] $end
$upscope $end
$scope module MYpcadder $end
$var wire 32 K! NowPC[31:0] $end
$upscope $end
$scope module MYregister1 $end
$var wire 8 O! IN[7:0] $end
$upscope $end
$upscope $end
$scope module mydatacache $end
$var wire 6 d! mem_address[5:0] $end
$var wire 1 ^! clock $end
$var wire 8 _! dataforcpu[7:0] $end
$var wire 2 n! state[1:0] $end
$var wire 8 r! writedata[7:0] $end
$var wire 8 \! address[7:0] $end
$var wire 2 j! next_state[1:0] $end
$var wire 1 f! mem_read $end
$var wire 32 b! i $end
$var wire 1 `! dirtynow $end
$var wire 1 a! hit $end
$var wire 32 i! mem_writedata[31:0] $end
$var wire 1 h! mem_write $end
$var wire 1 k! read $end
$var wire 3 o! tagIn[2:0] $end
$var wire 32 g! mem_readdata[31:0] $end
$var wire 1 ]! busywait $end
$var wire 8 l! readdata[7:0] $end
$var wire 1 e! mem_busywait $end
$var wire 1 m! reset $end
$upscope $end
$scope module mycpu $end
$scope module mycomp $end
$var wire 8 [! OUT[7:0] $end
$upscope $end
$upscope $end
$scope module mydatacache $end
$var wire 1 p! validnow $end
$var wire 1 q! write $end
$var wire 32 c! j $end
$upscope $end
$upscope $end
$enddefinitions $end
$dumpvars
#0
x@!
x&!
bx c
bx J!
bx G!
bx ^
0.
bx %
x5
bx n
0>
x,
xO
xW
bx 8!
bx +!
1J
1C!
bx H!
xB!
x9
x?!
x5!
bx x
0U
bx ;!
bx 7
bx p
xr
bx X!
bx A!
xR
x>!
bx 4!
bx \!
bx -!
bx 3!
bx R!
xu
0T!
bx N
0(
1:
bx .!
bx 0!
bx N!
x<!
xe
bx D!
x9!
bx r!
x|
bx K!
bx 6!
bx l
xs
bx O!
bx F
bx b
bx !!
bx d!
1^!
xS
bx _!
bx n!
x`
xp!
xh!
bx #!
bx A
bx j!
xf!
bx C
x#
bx @
bx f
bx z
bx b!
x`!
1P
xa!
bx i!
bx [!
xY
bx o!
xk!
bx '!
x;
bx g!
bx *
x"!
xa
x]!
bx l!
xK
xe!
0m!
bx ]
bx _
bx c!
bx k
xq!
xV
1$
xm
bx g
bx }
bx \
bx <
bx T
bx i
x2
xE!
bx Q
bx $!
bx h
xG
bx Z!
bx "
x8
bx 4
0D
bx j
bx )!
bx %!
bx =
x?
bx ,!
x/
bx 1!
bx y
xZ
bx w
x/!
1[
bx 6
bx -
bx (!
bx {
bx d
bx B
0L
x*!
x)
bx M
1M!
xU!
x3
bx ~
bx 2!
bx X
bx 1
bx '
bx V!
bx P!
bx :!
0o
xv
bx S!
bx +
bx 7!
xF!
x=!
bx q
0I!
xt
bx 0
x&
bx W!
bx Y!
bx Q!
0I
bx E
xL!
bx H
#40
0S
1.
0W
05
0O
0C!
0J
0B!
1U
0^!
0R
1T!
0:
b1000 b!
0`
b0 n!
0h!
b0 j!
0f!
0#
0]!
0P
b0xxxxxxxx i!
b1000 <
1m!
0K
0e!
b1000 c!
0$
0V
0L!
b100000000 Q
02
0E!
08
1D
b0 B
0?
0Z
b0xxxxxxxx 6
0[
b0 E
1o
0)
03
0M!
b0xxxxxxxx X
1I!
0&
#50
b11111111111111111111111111111100 H!
b1111111100 7
b11111111111111111111111111111100 K!
b11111111111111111111111111111100 l
b11111111111111111111111111111100 +
#60
b0 J!
b0 G!
b0 x
b0 g
0G
b0 $!
b0 %!
b1000 V!
b0 Y!
#69
0;
#80
1$
0.
1C!
0U
1J
1^!
0T!
1:
1P
0m!
0D
0I!
1[
0o
1M!
#90
b0 +
b0 7
b0 K!
19
b0 H!
1&
1`
b0 l
18
1E!
b1 B
#100
b100 Y!
b100 J!
b100 x
b100 G!
b100 g
b100 %!
b100 $!
#120
0M!
0P
0C!
0$
0:
0J
0^!
0[
#160
1[
1J
1P
b0 H
1>
1M!
1(
1:
1C!
1$
1K
1^!
1L
b0 =
1?
b1 E
1)
b0 '
1I
#200
0$
0J
0[
0P
0C!
0M!
0:
0^!
#240
1^!
1M!
1J
1$
1C!
1[
1P
1:
#280
0:
0[
0M!
0^!
0C!
0J
0$
0P
#320
1P
1J
1[
1:
1C!
1M!
1^!
1$
#360
0$
0M!
0J
0P
0C!
0[
0:
0^!
#400
1^!
1[
1M!
1$
1C!
1J
1P
1:
#440
0:
0J
0[
0^!
0C!
0M!
0$
0P
#480
1P
1M!
1J
1:
1C!
1[
1^!
1$
#520
0$
0[
0M!
0P
0C!
0J
0:
0^!
#560
1^!
1J
1[
1$
1C!
1M!
1P
1:
#600
0:
0M!
0J
0^!
0C!
0[
0$
0P
#640
1P
1[
1M!
1:
1C!
1J
bx00000100 @
bx00000100 *
1^!
1$
bx00000100 M
#680
0[
0P
0C!
0M!
0:
0J
0$
0^!
#720
1^!
1:
1M!
1P
1[
1C!
1$
1J
#760
0J
0[
0P
0:
0^!
0M!
0$
0C!
#800
1C!
1^!
1:
1[
1J
1P
1$
1M!
#840
0M!
0J
0[
0^!
0C!
0:
0$
0P
#880
1P
1C!
1^!
1J
1M!
1[
1$
1:
#920
0:
0M!
0J
0C!
0P
0^!
0$
0[
#960
1[
1P
1C!
1M!
1:
1J
1$
1^!
#1000
0^!
0:
0M!
0P
0[
0C!
0$
0J
#1040
1J
1[
bx0000000000000100 M
bx0000000000000100 *
1P
1:
bx0000000000000100 @
1^!
1M!
1$
1C!
#1080
0C!
0^!
0[
0J
0P
0:
0$
0M!
#1120
1M!
1P
1^!
1C!
1J
1[
1$
1:
#1160
0:
0J
0P
0M!
0C!
0^!
0$
0[
#1200
1[
1C!
1J
1:
1M!
1P
1$
1^!
#1240
0^!
0M!
0C!
0[
0:
0J
0$
0P
#1280
1P
1:
1M!
1^!
1[
1C!
1$
1J
#1320
0J
0[
0:
0P
0^!
0M!
0$
0C!
#1360
1C!
1^!
1[
1J
1P
1:
1$
1M!
#1400
0M!
0P
0^!
0C!
0J
0[
0$
0:
#1440
1:
1J
1P
1M!
1C!
bx000000010000000000000100 @
bx000000010000000000000100 M
bx000000010000000000000100 *
1^!
1$
1[
#1480
0[
0J
0:
0C!
0P
0M!
0$
0^!
#1520
1^!
1P
1[
1C!
1:
1J
1$
1M!
#1560
0M!
0:
0^!
0C!
0[
0P
0$
0J
#1600
1J
1[
1M!
1C!
1^!
1:
1$
1P
#1640
0P
0^!
0J
0C!
0M!
0[
0$
0:
#1680
1:
1M!
1P
1C!
1J
1^!
1$
1[
#1720
0[
0J
0:
0C!
0P
0M!
0$
0^!
#1760
1^!
1P
1[
1C!
1:
1J
1$
1M!
#1800
0M!
0:
0^!
0C!
0[
0P
0$
0J
#1840
1J
1[
1M!
bx00001000000000010000000000000100 *
1C!
1^!
bx00001000000000010000000000000100 M
1:
bx00001000000000010000000000000100 @
1$
1P
#1880
0P
0:
0[
0J
0C!
0M!
0^!
0$
#1920
1$
1M!
1:
1P
1C!
1[
1J
1^!
#1960
0^!
0[
0M!
0$
0C!
0:
0P
0J
#2000
1J
1:
1[
1^!
1C!
1M!
1$
1P
#2040
0P
0M!
0:
0J
0C!
0[
0^!
0$
#2080
1$
1[
1M!
1P
1C!
1:
1J
1^!
#2120
0^!
0:
0[
0$
0C!
0M!
0P
0J
#2160
1J
1M!
1:
1^!
1C!
1[
1$
1P
#2200
0P
0[
0M!
0J
0C!
0:
0^!
0$
#2240
1$
1:
1[
1P
1C!
1M!
bx0000010100001000000000010000000000000100 M
bx0000010100001000000000010000000000000100 *
1J
1^!
bx0000010100001000000000010000000000000100 @
#2280
0:
0$
0C!
0[
0P
0M!
0^!
0J
#2320
1J
1P
1[
1$
1:
1C!
1^!
1M!
#2360
0M!
0:
0$
0P
0J
0[
0^!
0C!
#2400
1C!
1J
1P
1:
1M!
1$
1^!
1[
#2440
0[
0M!
0:
0J
0C!
0P
0^!
0$
#2480
1$
1C!
1J
1M!
1[
1:
1^!
1P
#2520
0P
0[
0M!
0C!
0$
0J
0^!
0:
#2560
1:
1$
1C!
1[
1P
1M!
1^!
1J
#2600
0J
0P
0[
0$
0:
0C!
0^!
0M!
#2640
1M!
1:
bx000000000000010100001000000000010000000000000100 @
bx000000000000010100001000000000010000000000000100 *
1$
1P
bx000000000000010100001000000000010000000000000100 M
1J
1[
1^!
1C!
#2680
0C!
0J
0:
0M!
0$
0P
0^!
0[
#2720
1[
1$
1J
1C!
1M!
1:
1^!
1P
#2760
0P
0M!
0$
0[
0C!
0J
0^!
0:
#2800
1:
1C!
1M!
1P
1[
1$
1^!
1J
#2840
0J
0[
0C!
0:
0P
0M!
0^!
0$
#2880
1$
1P
1[
1J
1:
1C!
1^!
1M!
#2920
0M!
0:
0P
0$
0J
0[
0^!
0C!
#2960
1C!
1J
1:
1M!
1$
1P
1^!
1[
#3000
0[
0$
0J
0C!
0M!
0:
0^!
0P
#3040
1P
1M!
1$
1[
1C!
bx00000010000000000000010100001000000000010000000000000100 M
bx00000010000000000000010100001000000000010000000000000100 @
bx00000010000000000000010100001000000000010000000000000100 *
1J
1^!
1:
#3080
0:
0M!
0P
0C!
0$
0[
0^!
0J
#3120
1J
1$
1:
1C!
1P
1M!
1^!
1[
#3160
0[
0P
0J
0C!
0:
0$
0^!
0M!
#3200
1M!
1:
1[
1C!
1J
1P
1^!
1$
#3240
0$
0J
0M!
0C!
0[
0:
0^!
0P
#3280
1P
1[
1$
1C!
1M!
1J
1^!
1:
#3320
0:
0M!
0P
0C!
0$
0[
0^!
0J
#3360
1J
1$
1:
1C!
1P
1M!
1^!
1[
#3400
0[
0P
0J
0C!
0:
0$
0^!
0M!
#3440
1M!
1:
1[
bx0000100000000010000000000000010100001000000000010000000000000100 *
1C!
1J
bx0000100000000010000000000000010100001000000000010000000000000100 @
1P
bx0000100000000010000000000000010100001000000000010000000000000100 M
1^!
1$
#3480
0$
0P
0:
0M!
0C!
0[
0J
0^!
#3520
1^!
1[
1P
1$
1C!
1:
1M!
1J
#3560
0J
0:
0[
0^!
0C!
0P
0$
0M!
#3600
1M!
1P
1:
1J
1C!
1[
1^!
1$
#3640
0$
0[
0P
0M!
0C!
0:
0J
0^!
#3680
1^!
1:
1[
1$
1C!
1P
1M!
1J
#3720
0J
0P
0:
0^!
0C!
0[
0$
0M!
#3760
1M!
1[
1P
1J
1C!
1:
1^!
1$
#3800
0$
0:
0[
0M!
0C!
0P
0J
0^!
#3840
1^!
1P
1:
1$
1C!
1[
bx000000010000100000000010000000000000010100001000000000010000000000000100 @
bx000000010000100000000010000000000000010100001000000000010000000000000100 *
1M!
1J
bx000000010000100000000010000000000000010100001000000000010000000000000100 M
#3880
0P
0^!
0C!
0:
0$
0[
0J
0M!
#3920
1M!
1$
1:
1^!
1P
1C!
1J
1[
#3960
0[
0P
0^!
0$
0M!
0:
0J
0C!
#4000
1C!
1M!
1$
1P
1[
1^!
1J
1:
#4040
0:
0[
0P
0M!
0C!
0$
0J
0^!
#4080
1^!
1C!
1M!
1[
1:
1P
1J
1$
#4120
0$
0:
0[
0C!
0^!
0M!
0J
0P
#4160
1P
1^!
1C!
1:
1$
1[
1J
1M!
#4200
0M!
0$
0:
0^!
0P
0C!
0J
0[
#4240
1[
1P
bx00000010000000010000100000000010000000000000010100001000000000010000000000000100 M
bx00000010000000010000100000000010000000000000010100001000000000010000000000000100 *
1^!
1$
bx00000010000000010000100000000010000000000000010100001000000000010000000000000100 @
1M!
1:
1J
1C!
#4280
0C!
0M!
0P
0[
0^!
0$
0J
0:
#4320
1:
1^!
1M!
1C!
1[
1P
1J
1$
#4360
0$
0[
0^!
0:
0C!
0M!
0J
0P
#4400
1P
1C!
1[
1$
1:
1^!
1J
1M!
#4440
0M!
0:
0C!
0P
0$
0[
0J
0^!
#4480
1^!
1$
1:
1M!
1P
1C!
1J
1[
#4520
0[
0P
0$
0^!
0M!
0:
0J
0C!
#4560
1C!
1M!
1P
1[
1^!
1$
1J
1:
#4600
0:
0^!
0M!
0C!
0[
0P
0J
0$
#4640
1$
1[
1^!
1:
1C!
bx0000000000000010000000010000100000000010000000000000010100001000000000010000000000000100 @
bx0000000000000010000000010000100000000010000000000000010100001000000000010000000000000100 M
bx0000000000000010000000010000100000000010000000000000010100001000000000010000000000000100 *
1M!
1J
1P
#4680
0P
0[
0$
0C!
0^!
0:
0J
0M!
#4720
1M!
1^!
1P
1C!
1$
1[
1J
1:
#4760
0:
0$
0M!
0C!
0P
0^!
0J
0[
#4800
1[
1P
1:
1C!
1M!
1$
1J
1^!
#4840
0^!
0M!
0[
0C!
0:
0P
0J
0$
#4880
1$
1:
1^!
1C!
1[
1M!
1J
1P
#4920
0P
0[
0$
0C!
0^!
0:
0J
0M!
#4960
1M!
1^!
1P
1C!
1$
1[
1J
1:
#5000
0:
0$
0M!
0C!
0P
0^!
0J
0[
#5040
1[
1P
1:
bx001010000000000000000010000000010000100000000010000000000000010100001000000000010000000000000100 *
1C!
1M!
bx001010000000000000000010000000010000100000000010000000000000010100001000000000010000000000000100 M
1$
bx001010000000000000000010000000010000100000000010000000000000010100001000000000010000000000000100 @
1J
1^!
#5080
0^!
0$
0P
0[
0C!
0:
0M!
0J
#5120
1J
1:
1$
1^!
1C!
1P
1[
1M!
#5160
0M!
0P
0:
0J
0C!
0$
0^!
0[
#5200
1[
1$
1P
1M!
1C!
1:
1J
1^!
#5240
0^!
0:
0$
0[
0C!
0P
0M!
0J
#5280
1J
1P
1:
1^!
1C!
1$
1[
1M!
#5320
0M!
0$
0P
0J
0C!
0:
0^!
0[
#5360
1[
1:
1$
1M!
1C!
1P
1J
1^!
#5400
0^!
0P
0:
0[
0C!
0$
0M!
0J
#5440
1J
1$
1P
1^!
1C!
1:
bx00001001001010000000000000000010000000010000100000000010000000000000010100001000000000010000000000000100 M
bx00001001001010000000000000000010000000010000100000000010000000000000010100001000000000010000000000000100 *
1[
1M!
bx00001001001010000000000000000010000000010000100000000010000000000000010100001000000000010000000000000100 @
#5480
0$
0J
0C!
0P
0^!
0:
0M!
0[
#5520
1[
1^!
1P
1J
1$
1C!
1M!
1:
#5560
0:
0$
0J
0^!
0[
0P
0M!
0C!
#5600
1C!
1[
1^!
1$
1:
1J
1M!
1P
#5640
0P
0:
0$
0[
0C!
0^!
0M!
0J
#5680
1J
1C!
1[
1:
1P
1$
1M!
1^!
#5720
0^!
0P
0:
0C!
0J
0[
0M!
0$
#5760
1$
1J
1C!
1P
1^!
1:
1M!
1[
#5800
0[
0^!
0P
0J
0$
0C!
0M!
0:
#5840
1:
1$
bx0000000100001001001010000000000000000010000000010000100000000010000000000000010100001000000000010000000000000100 @
bx0000000100001001001010000000000000000010000000010000100000000010000000000000010100001000000000010000000000000100 *
1J
1^!
bx0000000100001001001010000000000000000010000000010000100000000010000000000000010100001000000000010000000000000100 M
1[
1P
1M!
1C!
#5880
0C!
0[
0$
0:
0J
0^!
0M!
0P
#5920
1P
1J
1[
1C!
1:
1$
1M!
1^!
#5960
0^!
0:
0J
0P
0C!
0[
0M!
0$
#6000
1$
1C!
1:
1^!
1P
1J
1M!
1[
#6040
0[
0P
0C!
0$
0^!
0:
0M!
0J
#6080
1J
1^!
1P
1[
1$
1C!
1M!
1:
#6120
0:
0$
0^!
0J
0[
0P
0M!
0C!
#6160
1C!
1[
1$
1:
1J
1^!
1M!
1P
#6200
0P
0J
0[
0C!
0:
0$
0M!
0^!
#6240
1^!
1:
1J
1P
1C!
bx000000000000000100001001001010000000000000000010000000010000100000000010000000000000010100001000000000010000000000000100 M
bx000000000000000100001001001010000000000000000010000000010000100000000010000000000000010100001000000000010000000000000100 @
bx000000000000000100001001001010000000000000000010000000010000100000000010000000000000010100001000000000010000000000000100 *
1[
1M!
1$
#6280
0$
0:
0^!
0C!
0J
0P
0M!
0[
#6320
1[
1J
1$
1C!
1^!
1:
1M!
1P
#6360
0P
0^!
0[
0C!
0$
0J
0M!
0:
#6400
1:
1$
1P
1C!
1[
1^!
1M!
1J
#6440
0J
0[
0:
0C!
0P
0$
0M!
0^!
#6480
1^!
1P
1J
1C!
1:
1[
1M!
1$
#6520
0$
0:
0^!
0C!
0J
0P
0M!
0[
#6560
1[
1J
1$
1C!
1^!
1:
1M!
1P
#6600
0P
0^!
0[
0C!
0$
0J
0M!
0:
#6640
1:
1$
1P
0I
0>
b0 B
b101000000000000000000100001001001010000000000000000010000000010000100000000010000000000000010100001000000000010000000000000100 *
bx H
1C!
1[
b101000000000000000000100001001001010000000000000000010000000010000100000000010000000000000010100001000000000010000000000000100 @
1^!
b101000000000000000000100001001001010000000000000000010000000010000100000000010000000000000010100001000000000010000000000000100 M
0(
1M!
bx '
0K
0L
1J
0)
0?
bx =
b11 E
#6660
b0 F
b1000000000010000000000000100 A
1G
#6669
1;
b1000000000010000000000000100 ^
b100 8!
b0 A!
b1000000000010000000000000100 %
b0 i
b0 X!
b100 ;!
b1 N!
b1000000000010000000000000100 D!
b1 6!
b1000000000010000000000000100 C
b100 k
b1 ]
b100 _
b100 }
b0 w
b0 :!
b100 S!
b1000000000010000000000000100 7!
b0 Q!
#6679
b100 c
1@!
0&!
0,
0?!
05!
0r
b0 4!
1>!
0u
b0 .!
0<!
0e
0|
09!
b100 !!
1s
0Y
0a
0k!
1"!
0q!
0m
0/
b100 ,!
0*!
1U!
1v
b0 q
0=!
0F!
#6680
0P
0:
0$
0^!
0C!
0[
0M!
0J
#6689
b0 +!
b100 p
b0 R!
bx1xx 3!
b100 \!
b100 -!
b0 r!
b100 O!
b0 b
b100 #!
b0 z
b100 f
b0 Z!
b0 h
b100 "
b100 )!
b0 j
b0x00 1!
0/!
b100 d
b0 {
b100 (!
b0 ~
b100 2!
b0 P!
b0 0
0t
b100 W!
#6699
b100 3!
0p!
0`!
b0 [!
b0 \
b0 y
b0 1!
#6708
0a!
#6709
b100 0!
#6720
1C!
1P
0&
09
1J
1^!
1:
b0 E
1$
0E!
08
1M!
0`
1[
#6730
1&
b100 +
b100 K!
b100 7
b100 H!
19
1`
18
1E!
b100 l
#6740
b1000000000100000000000000101 %
b1000000000100000000000000101 ^
b10 N!
b101 _
b1000 x
b101 c
b101 8!
b101 ;!
b1000 $!
b1000 J!
b1000 Y!
b101 !!
b10 ]
b10 6!
b1000000000100000000000000101 D!
b1000000000100000000000000101 C
b101 k
b1000000000100000000000000101 A
b1000000000100000000000000101 7!
b101 S!
b1000 g
b1000 %!
b101 }
b101 ,!
b1000 G!
#6750
b101 p
b101 -!
b101 \!
b101 O!
b101 3!
b101 "
b101 d
b101 )!
b101 (!
b101 2!
#6760
0C!
b101 0!
0P
0[
0J
b1000 W!
b1000 #!
0:
0^!
0$
b1000 f
0M!
#6800
1M!
1:
1C!
0&
1J
1[
1P
1^!
08
0`
0E!
09
1$
#6810
b1000 +
b1000 l
b1000 H!
1&
b1000 7
b1000 K!
19
1`
18
1E!
#6820
b101000000000000000001000000001 %
b10 Q!
b1 _
b0 N!
b101000000000000000001000000001 ^
b1 c
b1100 G!
b1100 x
b101000000000000000001000000001 C
b1 8!
b10 i
b1100 J!
b101000000000000000001000000001 D!
b1 ;!
b1100 $!
b0 6!
b1100 Y!
b0 ]
b1 !!
b1 ,!
b1 k
b1 }
b101000000000000000001000000001 7!
b101000000000000000001000000001 A
b1 S!
b10 :!
b1100 %!
b1100 g
#6830
b1 O!
1q!
b1 p
b101 r!
b101 +!
1r
b100 z
1B!
0>!
b1 2!
b100 R!
b1 -!
b100 b
b1 \!
0s
b1 j!
1#
1]!
b1 (!
b101 h
1=!
1Z
b1 "
1L!
b100 Z!
b1 3!
b100 j
b1 )!
b101 0
1/
b100 {
b1 d
0U!
b101 P!
b100 ~
#6840
0$
0[
0:
b1 1!
0M!
b11111100 [!
0J
0C!
b1100 #!
b1100 W!
b11111100 \
b11111100 y
b1100 f
0^!
0P
b101 3!
#6850
b110 0!
#6880
1$
1S
1O
0E!
1R
1:
1[
b0 N
b0 d!
1C!
b1 n!
1M!
0&
1f!
1J
bx i!
1e!
1P
12
08
09
1^!
bx 6
b0 1
0`
13
bx X
#6920
0[
0$
0:
0J
0C!
0M!
0P
0^!
#6960
1^!
1C!
1[
1J
1$
1:
1P
1M!
#7000
0M!
0$
0^!
0J
0C!
0[
0P
0:
#7040
1:
1C!
1M!
1J
1$
1^!
1P
1[
#7080
0[
0$
0:
0J
0C!
0M!
0P
0^!
#7120
1^!
1C!
1[
1J
1$
1:
1P
1M!
#7160
0M!
0$
0^!
0J
0C!
0[
0P
0:
#7200
1:
1C!
1M!
1J
1$
1^!
1P
1[
#7240
0[
0$
0:
0J
0C!
0M!
0P
0^!
#7280
1^!
1C!
1[
1J
1$
1:
1P
1M!
#7320
0M!
0$
0^!
0J
0C!
0[
0P
0:
#7360
1:
1C!
1M!
1J
1$
bx00000000 T
bx00000000 g!
1^!
1P
bx00000000 4
1[
#7400
0[
0:
0J
0C!
0M!
0$
0^!
0P
#7440
1P
1M!
1C!
1:
1[
1J
1^!
1$
#7480
0$
0[
0:
0M!
0P
0C!
0^!
0J
