2-Building a Memory Hierarchy/e16025_lab6_part3/SCREENSHOTS and VCD files/wavedata_INSTRUCTION_SET_03.vcd
$date
	Sun Jun 21 18:14:57 2020
$end
$version
	GTKWave Analyzer v3.3.100 (w)1999-2019 BSI
$end
$timescale
	100ps
$end
$scope module testbench $end
$var wire 6 ' Insmem_address[5:0] $end
$var wire 1 3 mem_read $end
$var wire 1 & Ins_busywait $end
$var wire 32 % INSTRUCTION[31:0] $end
$var wire 1 # BUSYWAIT $end
$var wire 8 " ADDRESS[7:0] $end
$var wire 32 6 mem_writedata[31:0] $end
$var wire 1 5 mem_write $end
$var wire 1 2 mem_busywait $end
$var wire 6 1 mem_address[5:0] $end
$var wire 8 0 WRITEDATA[7:0] $end
$var wire 32 4 mem_readdata[31:0] $end
$var wire 1 / WRITE $end
$var wire 8 - READDATA[7:0] $end
$var wire 1 , READ $end
$var wire 32 + PC[31:0] $end
$var wire 128 * Insmem_readdata[127:0] $end
$var wire 1 ) Insmem_read $end
$var wire 1 ( Insmem_busywait $end
$scope module myInsData_mem $end
$var wire 1 K read $end
$upscope $end
$scope module my_datamem $end
$var wire 1 R read $end
$upscope $end
$scope module myInsData_Cache $end
$var wire 1 : clock $end
$var wire 1 D reset $end
$var wire 32 C readdata[31:0] $end
$upscope $end
$scope module myInsData_mem $end
$var wire 6 H address[5:0] $end
$upscope $end
$scope module myInsData_Cache $end
$var wire 1 G validnow $end
$upscope $end
$scope module myInsData_mem $end
$var wire 1 J clock $end
$var wire 1 L readaccess $end
$var wire 128 M readdata[127:0] $end
$upscope $end
$scope module myInsData_Cache $end
$var wire 3 F tagIn[2:0] $end
$upscope $end
$scope module my_datamem $end
$var wire 1 V write $end
$var wire 6 N address[5:0] $end
$upscope $end
$scope module myInsData_Cache $end
$var wire 1 ; hit $end
$upscope $end
$scope module my_datamem $end
$var wire 1 O busywait $end
$upscope $end
$scope module mycpu $end
$var wire 1 [ CLK $end
$upscope $end
$scope module myInsData_Cache $end
$var wire 32 A next_Instuction[31:0] $end
$upscope $end
$var wire 1 $ CLK $end
$scope module myInsData_Cache $end
$var wire 1 9 cache_read $end
$upscope $end
$scope module my_datamem $end
$var wire 1 W writeaccess $end
$var wire 32 T readdata[31:0] $end
$upscope $end
$scope module myInsData_Cache $end
$var wire 2 B next_state[1:0] $end
$var wire 32 < i $end
$upscope $end
$var wire 1 . RESET $end
$scope module myInsData_Cache $end
$var wire 6 = mem_address[5:0] $end
$var wire 10 7 address[9:0] $end
$var wire 1 ? mem_read $end
$upscope $end
$scope module myInsData_mem $end
$var wire 1 I busywait $end
$upscope $end
$scope module my_datamem $end
$var wire 1 S readaccess $end
$var wire 1 P clock $end
$var wire 1 U reset $end
$var wire 32 X writedata[31:0] $end
$upscope $end
$scope module myInsData_Cache $end
$var wire 128 @ mem_readdata[127:0] $end
$var wire 1 > mem_busywait $end
$var wire 2 E state[1:0] $end
$upscope $end
$scope module my_datamem $end
$var wire 32 Q i $end
$upscope $end
$scope module mycpu $end
$var wire 32 ^ INSTRUCTION[31:0] $end
$var wire 1 ` Ins_busywait $end
$upscope $end
$scope module myInsData_Cache $end
$var wire 1 8 cache_busywait $end
$upscope $end
$scope module mycpu $end
$scope module MUX2 $end
$var wire 8 } INPUT1[7:0] $end
$upscope $end
$var wire 8 b MUX1OUT[7:0] $end
$scope module MUX1 $end
$var wire 8 y INPUT1[7:0] $end
$upscope $end
$var wire 1 o RESET $end
$scope module MUX3 $end
$var wire 1 &! SELECT $end
$upscope $end
$var wire 32 g NextPC[31:0] $end
$var wire 32 f Next4plusPC[31:0] $end
$var wire 8 c MUX2OUT[7:0] $end
$scope module MUX2 $end
$var wire 1 "! SELECT $end
$upscope $end
$var wire 3 q SELECT[2:0] $end
$scope module MUX1 $end
$var wire 8 z INPUT2[7:0] $end
$upscope $end
$var wire 1 e MUX3_Select $end
$var wire 1 u compli_signal $end
$var wire 1 r WRITE $end
$var wire 8 n READDATA[7:0] $end
$var wire 1 m READ $end
$var wire 1 Z BUSYWAIT $end
$var wire 32 l PC[31:0] $end
$var wire 1 Y BRANCH $end
$scope module MUX1 $end
$var wire 8 { OUT[7:0] $end
$upscope $end
$var wire 1 t ZERO $end
$var wire 8 h OUT1[7:0] $end
$var wire 1 a JUMP $end
$scope module MUX2 $end
$var wire 8 ~ INPUT2[7:0] $end
$upscope $end
$var wire 1 s WRITEENABLE $end
$scope module MUX2 $end
$var wire 8 !! OUT[7:0] $end
$upscope $end
$scope module MUX3 $end
$var wire 32 #! INPUT1[31:0] $end
$upscope $end
$var wire 8 _ Immediate[7:0] $end
$var wire 8 j OUT2[7:0] $end
$var wire 3 k OUT2address[2:0] $end
$var wire 8 d MUX3OUT[7:0] $end
$var wire 3 ] IN2address[2:0] $end
$var wire 32 x pcnew[31:0] $end
$var wire 8 \ DATA2[7:0] $end
$scope module MUX3 $end
$var wire 32 $! INPUT2[31:0] $end
$upscope $end
$var wire 8 w offset[7:0] $end
$var wire 3 i OUT1address[2:0] $end
$scope module MUX1 $end
$var wire 1 | SELECT $end
$upscope $end
$scope module MUX3 $end
$var wire 32 %! OUT[31:0] $end
$upscope $end
$var wire 1 v imm_signal $end
$var wire 8 p RESULT[7:0] $end
$scope module MYalu $end
$var wire 8 1! andres[7:0] $end
$upscope $end
$scope module MYregister1 $end
$var wire 1 M! CLK $end
$upscope $end
$scope module MYalu $end
$var wire 8 3! orres[7:0] $end
$upscope $end
$scope module MYpcCounter $end
$var wire 32 G! NextPC[31:0] $end
$upscope $end
$scope module MYregister1 $end
$var wire 8 O! IN[7:0] $end
$upscope $end
$scope module MYcu $end
$var wire 8 A! offset[7:0] $end
$upscope $end
$scope module MUX4 $end
$var wire 8 (! INPUT2[7:0] $end
$upscope $end
$scope module MYalu $end
$var wire 1 /! ZERO $end
$var wire 3 .! SELECT[2:0] $end
$upscope $end
$scope module MYcu $end
$var wire 1 ?! compli_signal $end
$upscope $end
$scope module MYpcCounter $end
$var wire 1 E! Ins_busywait $end
$upscope $end
$scope module MYalu $end
$var wire 8 -! RESULT[7:0] $end
$upscope $end
$scope module MYpcCounter $end
$var wire 1 B! BUSYWAIT $end
$upscope $end
$scope module MYpcadder $end
$var wire 32 J! NextPC[31:0] $end
$upscope $end
$scope module MYalu $end
$var wire 8 2! forwadres[7:0] $end
$upscope $end
$scope module MYregister1 $end
$var wire 3 N! IN2address[2:0] $end
$upscope $end
$scope module MYalu $end
$var wire 8 0! addres[7:0] $end
$upscope $end
$scope module MYcu $end
$var wire 8 8! Immediate[7:0] $end
$var wire 3 6! IN2address[2:0] $end
$var wire 1 9! JUMP $end
$var wire 3 :! OUT1address[2:0] $end
$var wire 1 >! WRITEENABLE $end
$upscope $end
$scope module MUX4 $end
$var wire 8 '! INPUT1[7:0] $end
$upscope $end
$scope module MYcu $end
$var wire 32 7! INSTRUCTION[31:0] $end
$upscope $end
$scope module MYalu $end
$var wire 8 +! DATA1[7:0] $end
$var wire 8 ,! DATA2[7:0] $end
$upscope $end
$scope module MYcu $end
$var wire 1 <! READ $end
$var wire 3 4! ALUOP[2:0] $end
$var wire 1 5! BRANCH $end
$var wire 1 @! imm_signal $end
$upscope $end
$scope module MYpcCounter $end
$var wire 1 I! RESET $end
$upscope $end
$scope module MUX4 $end
$var wire 8 )! OUT[7:0] $end
$upscope $end
$scope module MYcu $end
$var wire 1 =! WRITE $end
$upscope $end
$scope module MUX4 $end
$var wire 1 *! SELECT $end
$upscope $end
$scope module MYpcCounter $end
$var wire 32 D! INSTRUCTION[31:0] $end
$var wire 1 C! CLK $end
$var wire 32 H! PC[31:0] $end
$upscope $end
$scope module MYpcadder $end
$var wire 32 K! NowPC[31:0] $end
$upscope $end
$scope module MYpcCounter $end
$var wire 1 F! JUMP $end
$upscope $end
$scope module MYcu $end
$var wire 3 ;! OUT2address[2:0] $end
$upscope $end
$upscope $end
$scope module mydatacache $end
$var wire 32 c! j $end
$var wire 1 e! mem_busywait $end
$var wire 8 r! writedata[7:0] $end
$upscope $end
$scope module mycpu $end
$scope module MYregister1 $end
$var wire 3 Q! OUT1address[2:0] $end
$upscope $end
$upscope $end
$scope module mydatacache $end
$var wire 1 a! hit $end
$var wire 32 b! i $end
$var wire 2 n! state[1:0] $end
$var wire 8 \! address[7:0] $end
$upscope $end
$scope module mycpu $end
$scope module PCOffsetter1 $end
$var wire 32 W! Next4plusPC[31:0] $end
$upscope $end
$scope module mycomp $end
$var wire 8 Z! IN[7:0] $end
$upscope $end
$upscope $end
$scope module mydatacache $end
$var wire 32 g! mem_readdata[31:0] $end
$upscope $end
$scope module mycpu $end
$scope module MYregister1 $end
$var wire 8 R! OUT2[7:0] $end
$upscope $end
$scope module PCOffsetter1 $end
$var wire 32 Y! next4pc[31:0] $end
$upscope $end
$upscope $end
$scope module mydatacache $end
$var wire 1 m! reset $end
$var wire 3 o! tagIn[2:0] $end
$upscope $end
$scope module mycpu $end
$scope module PCOffsetter1 $end
$var wire 8 X! OFFSET[7:0] $end
$upscope $end
$scope module MYregister1 $end
$var wire 1 L! BUSYWAIT $end
$upscope $end
$upscope $end
$scope module mydatacache $end
$var wire 8 _! dataforcpu[7:0] $end
$var wire 6 d! mem_address[5:0] $end
$upscope $end
$scope module mycpu $end
$scope module MYregister1 $end
$var wire 1 U! WRITEENABLE $end
$upscope $end
$upscope $end
$scope module mydatacache $end
$var wire 1 ^! clock $end
$upscope $end
$scope module mycpu $end
$scope module MYregister1 $end
$var wire 3 S! OUT2address[2:0] $end
$upscope $end
$upscope $end
$scope module mydatacache $end
$var wire 1 k! read $end
$upscope $end
$scope module mycpu $end
$scope module MYregister1 $end
$var wire 8 P! OUT1[7:0] $end
$var wire 32 V! i $end
$upscope $end
$upscope $end
$scope module mydatacache $end
$var wire 1 p! validnow $end
$var wire 1 ]! busywait $end
$var wire 1 `! dirtynow $end
$var wire 1 h! mem_write $end
$upscope $end
$scope module mycpu $end
$scope module mycomp $end
$var wire 8 [! OUT[7:0] $end
$upscope $end
$upscope $end
$scope module mydatacache $end
$var wire 1 q! write $end
$var wire 1 f! mem_read $end
$var wire 32 i! mem_writedata[31:0] $end
$var wire 2 j! next_state[1:0] $end
$var wire 8 l! readdata[7:0] $end
$upscope $end
$scope module mycpu $end
$scope module MYregister1 $end
$var wire 1 T! RESET $end
$upscope $end
$upscope $end
$upscope $end
$enddefinitions $end
$dumpvars
#0
bx 4!
bx w
xt
xe!
x=!
bx g
bx %
bx '
x3
bx N
x5
bx +
bx c
bx f
x5!
x@!
x;
0I!
bx )!
bx c!
bx q
bx D!
x*!
x"!
xO
1C!
bx *
xe
bx z
bx H!
bx K!
1[
xF!
bx ;!
bx _!
bx W!
xr
bx Q!
xu
bx r!
bx A
x2
x)
xm
bx n
xa!
bx b!
1$
bx n!
bx \!
xL!
bx l
bx g!
bx Z!
xZ
x9
bx R!
0(
bx {
xY
bx Y!
0m!
xW
bx o!
bx X!
0I
bx j!
bx V!
bx h
x#
bx d!
xU!
bx T
bx 1
xK
bx ~
xa
1^!
bx S!
bx B
xk!
bx P!
bx i!
bx !!
x]!
xp!
xs
bx <
x`!
xR
bx _
bx #!
xh!
bx [!
0.
xq!
xf!
bx $!
bx k
0T!
bx j
bx l!
bx =
bx 0
1:
bx \
bx ]
bx d
bx 7
x?
bx x
0D
x<!
bx Q
1M!
x|
bx "
bx i
x&
xS
bx 4
bx C
bx 1!
xv
bx %!
1P
0U
bx p
bx H
x?!
bx O!
bx G!
bx X
bx 3!
bx @
x/
xG
bx .!
bx (!
bx A!
0>
bx E
x/!
1J
x&!
bx 8!
xB!
bx 6
xE!
bx -!
bx ^
bx -
0L
bx 0!
bx 2!
bx J!
x`
x8
bx N!
bx M
bx ,!
bx :!
x9!
bx }
bx 6!
bx b
x,
bx F
bx +!
bx '!
x>!
bx y
0o
bx 7!
xV
#40
0V
0W
0e!
03
05
1I!
b1000 c!
0O
0C!
1m!
0[
02
0)
b0 n!
b1000 b!
0$
0L!
0Z
0?
0^!
0#
b0 j!
0K
0h!
0]!
b0 B
b0xxxxxxxx i!
b1000 <
0R
0f!
1.
1T!
0:
b0 E
0P
b100000000 Q
1D
0M!
0&
0S
b0xxxxxxxx X
1U
1o
0`
0E!
0J
b0xxxxxxxx 6
0B!
08
#50
b11111111111111111111111111111100 K!
b11111111111111111111111111111100 +
b11111111111111111111111111111100 H!
b11111111111111111111111111111100 l
b1111111100 7
#60
b0 g
b0 x
b0 Y!
b1000 V!
b0 $!
b0 %!
b0 G!
0G
b0 J!
#69
0;
#80
1$
0I!
0T!
1C!
0m!
1[
1^!
0.
1:
0D
1P
1M!
0o
0U
1J
#90
b0 +
18
b0 l
b0 7
b0 K!
19
b1 B
b0 H!
1&
1`
1E!
#100
b100 g
b100 J!
b100 Y!
b100 x
b100 %!
b100 $!
b100 G!
#120
0J
0C!
0^!
0$
0[
0:
0P
0M!
#160
1M!
1$
1C!
b0 '
1J
1)
1(
1^!
1?
1I
1K
b0 =
1P
b1 E
1>
b0 H
1:
1L
1[
#200
0[
0J
0M!
0C!
0$
0^!
0P
0:
#240
1:
1$
1M!
1J
1[
1C!
1P
1^!
#280
0^!
0[
0M!
0$
0:
0J
0P
0C!
#320
1C!
1:
1M!
1[
1^!
1$
1P
1J
#360
0J
0^!
0M!
0:
0C!
0[
0P
0$
#400
1$
1C!
1M!
1^!
1J
1:
1P
1[
#440
0[
0J
0M!
0C!
0$
0^!
0P
0:
#480
1:
1$
1M!
1J
1[
1C!
1P
1^!
#520
0^!
0[
0M!
0$
0:
0J
0P
0C!
#560
1C!
1:
1M!
1[
1^!
1$
1P
1J
#600
0J
0^!
0M!
0:
0C!
0[
0P
0$
#640
1$
1C!
1M!
bx00010010 *
1^!
1J
1:
1P
bx00010010 @
1[
bx00010010 M
#680
0J
0$
0M!
0C!
0^!
0[
0:
0P
#720
1P
1C!
1$
1J
1M!
1:
1^!
1[
#760
0[
0J
0C!
0P
0$
0^!
0M!
0:
#800
1:
1P
1J
1[
1C!
1M!
1$
1^!
#840
0^!
0[
0P
0:
0J
0$
0C!
0M!
#880
1M!
1:
1[
1^!
1P
1C!
1J
1$
#920
0$
0^!
0:
0M!
0[
0J
0P
0C!
#960
1C!
1M!
1^!
1$
1:
1P
1[
1J
#1000
0J
0$
0M!
0C!
0^!
0[
0:
0P
#1040
1P
1C!
1$
bx0000000000010010 *
1J
bx0000000000010010 M
1M!
1:
1^!
1[
bx0000000000010010 @
#1080
0P
0$
0C!
0J
0[
0M!
0^!
0:
#1120
1:
1C!
1P
1$
1^!
1J
1M!
1[
#1160
0[
0P
0:
0C!
0M!
0$
0J
0^!
#1200
1^!
1:
1[
1P
1J
1C!
1$
1M!
#1240
0M!
0[
0^!
0:
0$
0P
0C!
0J
#1280
1J
1^!
1M!
1[
1C!
1:
1P
1$
#1320
0$
0M!
0J
0^!
0P
0[
0:
0C!
#1360
1C!
1J
1$
1M!
1:
1^!
1[
1P
#1400
0P
0$
0C!
0J
0[
0M!
0^!
0:
#1440
1:
1C!
1P
bx000001100000000000010010 *
bx000001100000000000010010 @
bx000001100000000000010010 M
1$
1^!
1J
1M!
1[
#1480
0[
0:
0P
0C!
0M!
0$
0J
0^!
#1520
1^!
1P
1:
1[
1J
1C!
1$
1M!
#1560
0M!
0:
0P
0^!
0$
0[
0C!
0J
#1600
1J
1P
1:
1M!
1C!
1^!
1[
1$
#1640
0$
0:
0P
0J
0[
0M!
0^!
0C!
#1680
1C!
1P
1:
1$
1^!
1J
1M!
1[
#1720
0[
0:
0P
0C!
0M!
0$
0J
0^!
#1760
1^!
1P
1:
1[
1J
1C!
1$
1M!
#1800
0M!
0:
0P
0^!
0$
0[
0C!
0J
#1840
1J
1P
1:
bx00001000000001100000000000010010 *
1M!
bx00001000000001100000000000010010 M
bx00001000000001100000000000010010 @
1C!
1^!
1[
1$
#1880
0$
0J
0:
0P
0M!
0[
0^!
0C!
#1920
1C!
1P
1J
1$
1:
1^!
1[
1M!
#1960
0M!
0$
0P
0C!
0J
0[
0^!
0:
#2000
1:
1C!
1$
1M!
1P
1^!
1[
1J
#2040
0J
0M!
0C!
0:
0$
0[
0^!
0P
#2080
1P
1:
1M!
1J
1C!
1^!
1[
1$
#2120
0$
0J
0:
0P
0M!
0[
0^!
0C!
#2160
1C!
1P
1J
1$
1:
1^!
1[
1M!
#2200
0M!
0$
0P
0C!
0J
0[
0^!
0:
#2240
1:
1C!
1$
bx0001001000001000000001100000000000010010 *
1M!
bx0001001000001000000001100000000000010010 M
1P
1^!
bx0001001000001000000001100000000000010010 @
1[
1J
#2280
0J
0:
0$
0C!
0M!
0[
0P
0^!
#2320
1^!
1C!
1:
1J
1$
1P
1M!
1[
#2360
0[
0J
0C!
0^!
0:
0M!
0$
0P
#2400
1P
1^!
1J
1[
1C!
1$
1:
1M!
#2440
0M!
0[
0^!
0P
0J
0:
0C!
0$
#2480
1$
1P
1[
1M!
1^!
1C!
1J
1:
#2520
0:
0M!
0P
0$
0[
0J
0^!
0C!
#2560
1C!
1$
1M!
1:
1P
1^!
1[
1J
#2600
0J
0:
0$
0C!
0M!
0[
0P
0^!
#2640
1^!
1C!
1:
bx000000000001001000001000000001100000000000010010 *
1J
bx000000000001001000001000000001100000000000010010 M
1$
1P
1M!
1[
bx000000000001001000001000000001100000000000010010 @
#2680
0^!
0:
0C!
0J
0[
0$
0M!
0P
#2720
1P
1C!
1^!
1:
1M!
1J
1$
1[
#2760
0[
0^!
0P
0C!
0$
0:
0J
0M!
#2800
1M!
1P
1[
1^!
1J
1C!
1:
1$
#2840
0$
0[
0M!
0P
0:
0^!
0C!
0J
#2880
1J
1M!
1$
1[
1C!
1P
1^!
1:
#2920
0:
0$
0J
0M!
0^!
0[
0P
0C!
#2960
1C!
1J
1:
1$
1P
1M!
1[
1^!
#3000
0^!
0:
0C!
0J
0[
0$
0M!
0P
#3040
1P
1C!
1^!
bx00000101000000000001001000001000000001100000000000010010 *
bx00000101000000000001001000001000000001100000000000010010 @
bx00000101000000000001001000001000000001100000000000010010 M
1:
1M!
1J
1$
1[
#3080
0[
0P
0^!
0C!
0$
0:
0J
0M!
#3120
1M!
1^!
1P
1[
1J
1C!
1:
1$
#3160
0$
0P
0^!
0M!
0:
0[
0C!
0J
#3200
1J
1^!
1P
1$
1C!
1M!
1[
1:
#3240
0:
0P
0^!
0J
0[
0$
0M!
0C!
#3280
1C!
1^!
1P
1:
1M!
1J
1$
1[
#3320
0[
0P
0^!
0C!
0$
0:
0J
0M!
#3360
1M!
1^!
1P
1[
1J
1C!
1:
1$
#3400
0$
0P
0^!
0M!
0:
0[
0C!
0J
#3440
1J
1^!
1P
bx0000100000000101000000000001001000001000000001100000000000010010 *
1$
bx0000100000000101000000000001001000001000000001100000000000010010 M
bx0000100000000101000000000001001000001000000001100000000000010010 @
1C!
1M!
1[
1:
#3480
0:
0J
0P
0^!
0$
0[
0M!
0C!
#3520
1C!
1^!
1J
1:
1P
1M!
1[
1$
#3560
0$
0:
0^!
0C!
0J
0[
0M!
0P
#3600
1P
1C!
1:
1$
1^!
1M!
1[
1J
#3640
0J
0$
0C!
0P
0:
0[
0M!
0^!
#3680
1^!
1P
1$
1J
1C!
1M!
1[
1:
#3720
0:
0J
0P
0^!
0$
0[
0M!
0C!
#3760
1C!
1^!
1J
1:
1P
1M!
1[
1$
#3800
0$
0:
0^!
0C!
0J
0[
0M!
0P
#3840
1P
1C!
1:
bx000001010000100000000101000000000001001000001000000001100000000000010010 *
1$
bx000001010000100000000101000000000001001000001000000001100000000000010010 M
1^!
1M!
bx000001010000100000000101000000000001001000001000000001100000000000010010 @
1[
1J
#3880
0J
0P
0:
0C!
0$
0[
0^!
0M!
#3920
1M!
1C!
1P
1J
1:
1^!
1$
1[
#3960
0[
0J
0C!
0M!
0P
0$
0:
0^!
#4000
1^!
1M!
1J
1[
1C!
1:
1P
1$
#4040
0$
0[
0M!
0^!
0J
0P
0C!
0:
#4080
1:
1^!
1[
1$
1M!
1C!
1J
1P
#4120
0P
0$
0^!
0:
0[
0J
0M!
0C!
#4160
1C!
1:
1$
1P
1^!
1M!
1[
1J
#4200
0J
0P
0:
0C!
0$
0[
0^!
0M!
#4240
1M!
1C!
1P
bx00000110000001010000100000000101000000000001001000001000000001100000000000010010 *
1J
bx00000110000001010000100000000101000000000001001000001000000001100000000000010010 M
1:
1^!
1$
1[
bx00000110000001010000100000000101000000000001001000001000000001100000000000010010 @
#4280
0M!
0P
0C!
0J
0[
0:
0$
0^!
#4320
1^!
1C!
1M!
1P
1$
1J
1:
1[
#4360
0[
0M!
0^!
0C!
0:
0P
0J
0$
#4400
1$
1^!
1[
1M!
1J
1C!
1P
1:
#4440
0:
0[
0$
0^!
0P
0M!
0C!
0J
#4480
1J
1$
1:
1[
1C!
1^!
1M!
1P
#4520
0P
0:
0J
0$
0M!
0[
0^!
0C!
#4560
1C!
1J
1P
1:
1^!
1$
1[
1M!
#4600
0M!
0P
0C!
0J
0[
0:
0$
0^!
#4640
1^!
1C!
1M!
bx0000001000000110000001010000100000000101000000000001001000001000000001100000000000010010 *
bx0000001000000110000001010000100000000101000000000001001000001000000001100000000000010010 @
bx0000001000000110000001010000100000000101000000000001001000001000000001100000000000010010 M
1P
1$
1J
1:
1[
#4680
0[
0^!
0M!
0C!
0:
0P
0J
0$
#4720
1$
1M!
1^!
1[
1J
1C!
1P
1:
#4760
0:
0^!
0M!
0$
0P
0[
0C!
0J
#4800
1J
1M!
1^!
1:
1C!
1$
1[
1P
#4840
0P
0^!
0M!
0J
0[
0:
0$
0C!
#4880
1C!
1M!
1^!
1P
1$
1J
1:
1[
#4920
0[
0^!
0M!
0C!
0:
0P
0J
0$
#4960
1$
1M!
1^!
1[
1J
1C!
1P
1:
#5000
0:
0^!
0M!
0$
0P
0[
0C!
0J
#5040
1J
1M!
1^!
bx000100010000001000000110000001010000100000000101000000000001001000001000000001100000000000010010 *
1:
bx000100010000001000000110000001010000100000000101000000000001001000001000000001100000000000010010 M
bx000100010000001000000110000001010000100000000101000000000001001000001000000001100000000000010010 @
1C!
1$
1[
1P
#5080
0P
0J
0^!
0M!
0:
0[
0$
0C!
#5120
1C!
1M!
1J
1P
1^!
1$
1[
1:
#5160
0:
0P
0M!
0C!
0J
0[
0$
0^!
#5200
1^!
1C!
1P
1:
1M!
1$
1[
1J
#5240
0J
0:
0C!
0^!
0P
0[
0$
0M!
#5280
1M!
1^!
1:
1J
1C!
1$
1[
1P
#5320
0P
0J
0^!
0M!
0:
0[
0$
0C!
#5360
1C!
1M!
1J
1P
1^!
1$
1[
1:
#5400
0:
0P
0M!
0C!
0J
0[
0$
0^!
#5440
1^!
1C!
1P
bx00011110000100010000001000000110000001010000100000000101000000000001001000001000000001100000000000010010 *
1:
bx00011110000100010000001000000110000001010000100000000101000000000001001000001000000001100000000000010010 M
1M!
1$
bx00011110000100010000001000000110000001010000100000000101000000000001001000001000000001100000000000010010 @
1[
1J
#5480
0J
0^!
0P
0C!
0:
0[
0M!
0$
#5520
1$
1C!
1^!
1J
1P
1M!
1:
1[
#5560
0[
0J
0C!
0$
0^!
0:
0P
0M!
#5600
1M!
1$
1J
1[
1C!
1P
1^!
1:
#5640
0:
0[
0$
0M!
0J
0^!
0C!
0P
#5680
1P
1M!
1[
1:
1$
1C!
1J
1^!
#5720
0^!
0:
0M!
0P
0[
0J
0$
0C!
#5760
1C!
1P
1:
1^!
1M!
1$
1[
1J
#5800
0J
0^!
0P
0C!
0:
0[
0M!
0$
#5840
1$
1C!
1^!
bx0000000000011110000100010000001000000110000001010000100000000101000000000001001000001000000001100000000000010010 *
1J
bx0000000000011110000100010000001000000110000001010000100000000101000000000001001000001000000001100000000000010010 M
1P
1M!
1:
1[
bx0000000000011110000100010000001000000110000001010000100000000101000000000001001000001000000001100000000000010010 @
#5880
0$
0^!
0C!
0J
0[
0P
0:
0M!
#5920
1M!
1C!
1$
1^!
1:
1J
1P
1[
#5960
0[
0$
0M!
0C!
0P
0^!
0J
0:
#6000
1:
1M!
1[
1$
1J
1C!
1^!
1P
#6040
0P
0[
0:
0M!
0^!
0$
0C!
0J
#6080
1J
1:
1P
1[
1C!
1M!
1$
1^!
#6120
0^!
0P
0J
0:
0$
0[
0M!
0C!
#6160
1C!
1J
1^!
1P
1M!
1:
1[
1$
#6200
0$
0^!
0C!
0J
0[
0P
0:
0M!
#6240
1M!
1C!
1$
bx000000010000000000011110000100010000001000000110000001010000100000000101000000000001001000001000000001100000000000010010 *
bx000000010000000000011110000100010000001000000110000001010000100000000101000000000001001000001000000001100000000000010010 @
bx000000010000000000011110000100010000001000000110000001010000100000000101000000000001001000001000000001100000000000010010 M
1^!
1:
1J
1P
1[
#6280
0[
0M!
0$
0C!
0P
0^!
0J
0:
#6320
1:
1$
1M!
1[
1J
1C!
1^!
1P
#6360
0P
0M!
0$
0:
0^!
0[
0C!
0J
#6400
1J
1$
1M!
1P
1C!
1:
1[
1^!
#6440
0^!
0M!
0$
0J
0[
0P
0:
0C!
#6480
1C!
1$
1M!
1^!
1:
1J
1P
1[
#6520
0[
0M!
0$
0C!
0P
0^!
0J
0:
#6560
1:
1$
1M!
1[
1J
1C!
1^!
1P
#6600
0P
0M!
0$
0:
0^!
0[
0C!
0J
#6640
1J
1$
1M!
b1000000000010000000000011110000100010000001000000110000001010000100000000101000000000001001000001000000001100000000000010010 *
b0 B
0K
1P
b1000000000010000000000011110000100010000001000000110000001010000100000000101000000000001001000001000000001100000000000010010 M
bx '
b1000000000010000000000011110000100010000001000000110000001010000100000000101000000000001001000001000000001100000000000010010 @
0I
0)
0(
0?
1C!
1:
0L
bx =
b11 E
1[
0>
1^!
bx H
#6660
b1000000001100000000000010010 A
1G
b0 F
#6669
b0 w
b1000000001100000000000010010 %
1;
b1000000001100000000000010010 D!
b0 Q!
b10 ;!
b0 X!
b10 S!
b10010 _
b10 k
b110 ]
b1000000001100000000000010010 7!
b0 i
b1000000001100000000000010010 C
b0 A!
b10010 8!
b1000000001100000000000010010 ^
b10010 }
b110 N!
b0 :!
b110 6!
#6679
b0 4!
05!
0=!
b10010 c
1@!
b0 q
0*!
1"!
0e
0F!
0r
0u
0m
0Y
1U!
0a
0k!
b10010 !!
1s
0q!
0<!
0|
1v
0?!
0/
b0 .!
0&!
b10010 ,!
09!
0,
1>!
#6680
0M!
0J
0$
0P
0^!
0:
0C!
0[
#6689
0t
b100 f
b10010 )!
b0 z
b100 W!
b0 r!
b10010 \!
b0 Z!
b0 R!
b0 {
b0 h
b0 ~
b0 P!
b100 #!
b0 j
b0 0
b10010 d
b10010 "
b0x00x0 1!
b10010 p
b10010 O!
bx1xx1x 3!
b10010 (!
0/!
b10010 -!
b10010 2!
b0 b
b0 +!
#6699
b0 [!
0p!
0`!
b0 \
b0 1!
b10010 3!
b0 y
#6708
0a!
#6709
b10010 0!
#6720
1J
0E!
1[
1$
1M!
08
09
1C!
1^!
0`
1P
0&
1:
b0 E
#6730
18
b100 7
1E!
b100 +
b100 l
b100 K!
19
1&
1`
b100 H!
#6740
b1000000001010000000000010010 D!
b101 6!
b1000 G!
b1000 Y!
b1000000001010000000000010010 %
b1000 J!
b1000 g
b101 ]
b1000 $!
b1000000001010000000000010010 7!
b1000 x
b1000000001010000000000010010 C
b101 N!
b1000000001010000000000010010 A
b1000 %!
b1000000001010000000000010010 ^
#6760
0$
0J
b1000 f
b1000 W!
0[
0M!
b1000 #!
0:
0^!
0C!
0P
#6800
1P
1M!
0E!
1J
1$
08
1[
1C!
1:
0`
1^!
0&
09
#6810
19
18
b1000 l
b1000 H!
1E!
b1000 7
b1000 +
1&
1`
b1000 K!
#6820
b1100 J!
b10001000000100000011000000101 D!
b101 k
b1100 G!
b101 c
b10 6!
b10001000000100000011000000101 ^
b10001000000100000011000000101 %
b101 !!
b101 _
b101 ;!
b110 Q!
b101 S!
b1100 Y!
b110 i
b1100 $!
b110 :!
b1100 %!
b10 ]
b1100 g
b10001000000100000011000000101 C
b1100 x
b10001000000100000011000000101 7!
b10001000000100000011000000101 A
b101 }
b101 8!
b10 N!
b101 ,!
#6830
b0 ,!
b0 c
1u
b1 q
b10 w
0>!
0s
b1 4!
0@!
15!
b10010 Z!
0"!
b10010 r!
b10010 z
b0 !!
b10010 h
b10010 +!
0U!
b10010 0
b10010 R!
1Y
b10010 j
b10 X!
b10010 P!
1?!
1|
0v
b101 3!
b101 2!
b10 A!
b1 .!
#6840
b11101110 c
b10100 f
b11101110 ,!
0J
b11101110 y
0M!
0P
0$
b11101110 !!
b11101110 {
b10100 W!
b11101110 [!
b11101110 ~
0[
0C!
b11101110 b
b10100 #!
b0 2!
0:
0^!
b10010 3!
b11101110 \
#6850
b11111110 3!
b10 1!
b11101110 2!
#6860
1t
b0 0!
1e
b10100 G!
b0 \!
b0 )!
b10100 %!
b0 d
b0 O!
b0 p
b0 "
b0 (!
b0 -!
b10100 x
1/!
1&!
#6880
09
08
1J
1P
0E!
1M!
1$
1C!
0`
1[
1^!
0&
1:
#6890
19
b10100 7
b10100 H!
b10100 K!
b10100 l
1E!
18
1&
1`
b10100 +
#6900
bx S!
bx D!
b0 X!
b11000 J!
bx F
b0 w
bx k
bx Q!
bx ^
bx 6!
bx %
bx _
bx ;!
b11000 Y!
b0 A!
0G
b11000 $!
bx i
bx N!
bx :!
bx ]
bx 8!
b11000 g
bx C
bx }
bx 7!
bx A
#6909
0;
b1 B
#6910
1s
b11000 G!
b10010 c
bx q
0u
1>!
bx .!
0&!
bx 4!
0e
b10010 ,!
05!
1U!
0Y
b10010 {
b10010 !!
b10010 ~
0?!
b11000 %!
b10010 b
0|
b11000 x
