2-Building a Memory Hierarchy/e16025_lab6_part3/SCREENSHOTS and VCD files/wavedata_INSTRUCTION_SET_01.vcd
$date
	Sun Jun 21 18:04:30 2020
$end
$version
	GTKWave Analyzer v3.3.100 (w)1999-2019 BSI
$end
$timescale
	100ps
$end
$scope module testbench $end
$var wire 6 1 mem_address[5:0] $end
$var wire 8 0 WRITEDATA[7:0] $end
$var wire 32 6 mem_writedata[31:0] $end
$var wire 1 & Ins_busywait $end
$var wire 8 - READDATA[7:0] $end
$var wire 32 4 mem_readdata[31:0] $end
$var wire 1 2 mem_busywait $end
$var wire 32 % INSTRUCTION[31:0] $end
$var wire 1 , READ $end
$var wire 8 " ADDRESS[7:0] $end
$var wire 1 # BUSYWAIT $end
$var wire 1 ) Insmem_read $end
$var wire 1 3 mem_read $end
$var wire 1 / WRITE $end
$var wire 1 ( Insmem_busywait $end
$var wire 1 5 mem_write $end
$var wire 128 * Insmem_readdata[127:0] $end
$var wire 6 ' Insmem_address[5:0] $end
$var wire 32 + PC[31:0] $end
$scope module my_datamem $end
$var wire 1 P clock $end
$upscope $end
$scope module myInsData_Cache $end
$var wire 1 ; hit $end
$upscope $end
$scope module my_datamem $end
$var wire 1 R read $end
$var wire 1 S readaccess $end
$var wire 1 V write $end
$var wire 32 T readdata[31:0] $end
$var wire 1 W writeaccess $end
$var wire 32 Q i $end
$upscope $end
$scope module mycpu $end
$var wire 1 [ CLK $end
$var wire 1 ` Ins_busywait $end
$upscope $end
$scope module myInsData_Cache $end
$var wire 1 9 cache_read $end
$var wire 32 < i $end
$var wire 1 > mem_busywait $end
$upscope $end
$scope module myInsData_mem $end
$var wire 128 M readdata[127:0] $end
$upscope $end
$scope module my_datamem $end
$var wire 1 U reset $end
$upscope $end
$var wire 1 . RESET $end
$scope module myInsData_mem $end
$var wire 1 L readaccess $end
$upscope $end
$scope module myInsData_Cache $end
$var wire 2 B next_state[1:0] $end
$var wire 3 F tagIn[2:0] $end
$upscope $end
$scope module my_datamem $end
$var wire 32 X writedata[31:0] $end
$upscope $end
$scope module myInsData_Cache $end
$var wire 128 @ mem_readdata[127:0] $end
$var wire 32 C readdata[31:0] $end
$var wire 6 = mem_address[5:0] $end
$upscope $end
$var wire 1 $ CLK $end
$scope module my_datamem $end
$var wire 1 O busywait $end
$upscope $end
$scope module mycpu $end
$var wire 32 ^ INSTRUCTION[31:0] $end
$upscope $end
$scope module myInsData_mem $end
$var wire 1 J clock $end
$upscope $end
$scope module myInsData_Cache $end
$var wire 1 D reset $end
$var wire 2 E state[1:0] $end
$upscope $end
$scope module myInsData_mem $end
$var wire 6 H address[5:0] $end
$var wire 1 I busywait $end
$upscope $end
$scope module myInsData_Cache $end
$var wire 10 7 address[9:0] $end
$var wire 32 A next_Instuction[31:0] $end
$var wire 1 G validnow $end
$upscope $end
$scope module myInsData_mem $end
$var wire 1 K read $end
$upscope $end
$scope module my_datamem $end
$var wire 6 N address[5:0] $end
$upscope $end
$scope module myInsData_Cache $end
$var wire 1 : clock $end
$var wire 1 8 cache_busywait $end
$var wire 1 ? mem_read $end
$upscope $end
$scope module mycpu $end
$var wire 1 u compli_signal $end
$var wire 8 n READDATA[7:0] $end
$var wire 3 i OUT1address[2:0] $end
$scope module MUX3 $end
$var wire 32 %! OUT[31:0] $end
$upscope $end
$var wire 1 v imm_signal $end
$var wire 1 s WRITEENABLE $end
$var wire 1 o RESET $end
$var wire 32 l PC[31:0] $end
$var wire 1 r WRITE $end
$var wire 8 h OUT1[7:0] $end
$var wire 32 x pcnew[31:0] $end
$var wire 32 g NextPC[31:0] $end
$var wire 8 d MUX3OUT[7:0] $end
$var wire 8 _ Immediate[7:0] $end
$var wire 1 Z BUSYWAIT $end
$scope module MUX1 $end
$var wire 8 y INPUT1[7:0] $end
$upscope $end
$scope module MUX2 $end
$var wire 8 } INPUT1[7:0] $end
$var wire 1 "! SELECT $end
$var wire 8 !! OUT[7:0] $end
$upscope $end
$var wire 3 k OUT2address[2:0] $end
$scope module MUX1 $end
$var wire 8 { OUT[7:0] $end
$upscope $end
$scope module MUX3 $end
$var wire 1 &! SELECT $end
$var wire 32 $! INPUT2[31:0] $end
$upscope $end
$var wire 8 b MUX1OUT[7:0] $end
$var wire 3 q SELECT[2:0] $end
$scope module MUX3 $end
$var wire 32 #! INPUT1[31:0] $end
$upscope $end
$var wire 1 m READ $end
$var wire 3 ] IN2address[2:0] $end
$var wire 1 t ZERO $end
$var wire 32 f Next4plusPC[31:0] $end
$var wire 8 w offset[7:0] $end
$scope module MUX1 $end
$var wire 1 | SELECT $end
$upscope $end
$var wire 8 p RESULT[7:0] $end
$var wire 1 a JUMP $end
$var wire 1 Y BRANCH $end
$scope module MUX1 $end
$var wire 8 z INPUT2[7:0] $end
$upscope $end
$scope module MUX2 $end
$var wire 8 ~ INPUT2[7:0] $end
$upscope $end
$var wire 8 j OUT2[7:0] $end
$var wire 1 e MUX3_Select $end
$var wire 8 \ DATA2[7:0] $end
$var wire 8 c MUX2OUT[7:0] $end
$scope module MYalu $end
$var wire 8 +! DATA1[7:0] $end
$upscope $end
$scope module MYpcCounter $end
$var wire 1 I! RESET $end
$var wire 32 H! PC[31:0] $end
$upscope $end
$scope module MYpcadder $end
$var wire 32 J! NextPC[31:0] $end
$upscope $end
$scope module MUX4 $end
$var wire 8 '! INPUT1[7:0] $end
$upscope $end
$scope module MYcu $end
$var wire 1 ?! compli_signal $end
$upscope $end
$scope module MYpcCounter $end
$var wire 1 E! Ins_busywait $end
$upscope $end
$scope module MYregister1 $end
$var wire 8 O! IN[7:0] $end
$upscope $end
$scope module MYpcCounter $end
$var wire 1 B! BUSYWAIT $end
$var wire 1 F! JUMP $end
$upscope $end
$scope module MYalu $end
$var wire 8 0! addres[7:0] $end
$upscope $end
$scope module MYcu $end
$var wire 1 <! READ $end
$upscope $end
$scope module MYpcadder $end
$var wire 32 K! NowPC[31:0] $end
$upscope $end
$scope module MYregister1 $end
$var wire 1 M! CLK $end
$upscope $end
$scope module MYcu $end
$var wire 1 5! BRANCH $end
$upscope $end
$scope module MYregister1 $end
$var wire 3 N! IN2address[2:0] $end
$var wire 3 Q! OUT1address[2:0] $end
$upscope $end
$scope module MUX4 $end
$var wire 8 )! OUT[7:0] $end
$upscope $end
$scope module MYalu $end
$var wire 8 ,! DATA2[7:0] $end
$var wire 8 1! andres[7:0] $end
$var wire 8 2! forwadres[7:0] $end
$var wire 8 3! orres[7:0] $end
$upscope $end
$scope module MYcu $end
$var wire 32 7! INSTRUCTION[31:0] $end
$var wire 8 8! Immediate[7:0] $end
$var wire 3 :! OUT1address[2:0] $end
$upscope $end
$scope module MYalu $end
$var wire 8 -! RESULT[7:0] $end
$upscope $end
$scope module MYcu $end
$var wire 1 >! WRITEENABLE $end
$var wire 1 @! imm_signal $end
$upscope $end
$scope module MUX4 $end
$var wire 8 (! INPUT2[7:0] $end
$var wire 1 *! SELECT $end
$upscope $end
$scope module MYcu $end
$var wire 3 6! IN2address[2:0] $end
$upscope $end
$scope module MYalu $end
$var wire 3 .! SELECT[2:0] $end
$upscope $end
$scope module MYpcCounter $end
$var wire 1 C! CLK $end
$upscope $end
$scope module MYcu $end
$var wire 1 9! JUMP $end
$upscope $end
$scope module MYpcCounter $end
$var wire 32 D! INSTRUCTION[31:0] $end
$var wire 32 G! NextPC[31:0] $end
$upscope $end
$scope module MYcu $end
$var wire 3 ;! OUT2address[2:0] $end
$upscope $end
$scope module MYalu $end
$var wire 1 /! ZERO $end
$upscope $end
$scope module MYcu $end
$var wire 3 4! ALUOP[2:0] $end
$var wire 8 A! offset[7:0] $end
$var wire 1 =! WRITE $end
$upscope $end
$scope module PCOffsetter1 $end
$var wire 8 X! OFFSET[7:0] $end
$upscope $end
$upscope $end
$scope module mydatacache $end
$var wire 32 b! i $end
$upscope $end
$scope module mycpu $end
$scope module MYregister1 $end
$var wire 8 P! OUT1[7:0] $end
$upscope $end
$scope module PCOffsetter1 $end
$var wire 32 Y! next4pc[31:0] $end
$upscope $end
$upscope $end
$scope module mydatacache $end
$var wire 1 a! hit $end
$var wire 8 r! writedata[7:0] $end
$var wire 2 j! next_state[1:0] $end
$upscope $end
$scope module mycpu $end
$scope module MYregister1 $end
$var wire 32 V! i $end
$upscope $end
$scope module mycomp $end
$var wire 8 Z! IN[7:0] $end
$var wire 8 [! OUT[7:0] $end
$upscope $end
$upscope $end
$scope module mydatacache $end
$var wire 8 _! dataforcpu[7:0] $end
$var wire 1 m! reset $end
$var wire 2 n! state[1:0] $end
$upscope $end
$scope module mycpu $end
$scope module MYregister1 $end
$var wire 1 L! BUSYWAIT $end
$upscope $end
$upscope $end
$scope module mydatacache $end
$var wire 8 l! readdata[7:0] $end
$var wire 1 k! read $end
$upscope $end
$scope module mycpu $end
$scope module MYregister1 $end
$var wire 1 T! RESET $end
$upscope $end
$upscope $end
$scope module mydatacache $end
$var wire 1 f! mem_read $end
$var wire 1 ]! busywait $end
$upscope $end
$scope module mycpu $end
$scope module PCOffsetter1 $end
$var wire 32 W! Next4plusPC[31:0] $end
$upscope $end
$upscope $end
$scope module mydatacache $end
$var wire 1 e! mem_busywait $end
$var wire 6 d! mem_address[5:0] $end
$var wire 3 o! tagIn[2:0] $end
$var wire 1 h! mem_write $end
$upscope $end
$scope module mycpu $end
$scope module MYregister1 $end
$var wire 1 U! WRITEENABLE $end
$upscope $end
$upscope $end
$scope module mydatacache $end
$var wire 8 \! address[7:0] $end
$var wire 32 i! mem_writedata[31:0] $end
$var wire 32 c! j $end
$upscope $end
$scope module mycpu $end
$scope module MYregister1 $end
$var wire 3 S! OUT2address[2:0] $end
$var wire 8 R! OUT2[7:0] $end
$upscope $end
$upscope $end
$scope module mydatacache $end
$var wire 32 g! mem_readdata[31:0] $end
$var wire 1 q! write $end
$var wire 1 ^! clock $end
$var wire 1 p! validnow $end
$var wire 1 `! dirtynow $end
$upscope $end
$upscope $end
$enddefinitions $end
$dumpvars
#0
x@!
bx z
bx {
bx X!
1C!
xs
x&
bx 1
bx 0
0>
bx %
x5
bx l
0o
bx (!
x*!
bx M
bx 6!
bx .!
x=!
bx h
bx D!
x9!
xr
0U
bx G!
bx *
bx g
bx x
bx ;!
x/!
0.
bx 4!
bx A!
0T!
bx V!
bx _
bx P!
bx d
bx b!
0L
x,
bx '
bx y
xZ
bx Y!
xa!
bx B
bx r!
bx j!
xk!
x"!
bx [!
bx Z!
bx }
bx F
bx _!
bx +
bx k
bx !!
0m!
bx n!
bx X
xL!
bx l!
0D
1^!
xh!
x&!
bx -
xf!
x]!
bx @
bx "
1P
bx b
bx $!
bx W!
xe!
bx C
bx d!
bx o!
xq!
bx #!
bx \!
xU!
bx q
bx =
bx i!
x;
bx ]
xm
bx c!
bx S!
1$
bx R!
bx g!
xY
bx f
x`!
xt
xp!
xO
x#
xR
xa
x|
bx w
bx ^
1J
bx p
xS
x>!
bx N
0I!
bx j
bx 4
bx ~
bx 6
bx E
x)
xV
bx +!
bx \
xe
bx H
0I
bx c
bx T
xF!
bx '!
bx J!
bx 7
bx H!
bx A
x3
xW
xB!
xE!
x?!
xG
xK
bx O!
bx Q
xv
bx )!
bx K!
x2
bx 0!
x<!
1:
x/
1[
bx Q!
x5!
1M!
x8
x?
bx N!
x`
bx -!
bx 2!
bx 1!
xu
bx ,!
bx n
0(
x9
bx :!
bx 7!
bx 3!
bx i
bx %!
bx 8!
bx <
#40
b1000 <
b0xxxxxxxx X
0&
0C!
1o
05
1U
b0 n!
1.
1T!
0Z
b1000 b!
1m!
b0 B
b0 j!
0J
1D
0L!
0^!
0h!
0f!
0]!
0P
b1000 c!
0e!
b0xxxxxxxx i!
0$
0#
0O
0R
0K
0S
1I!
0)
b0xxxxxxxx 6
b0 E
0V
03
0E!
0W
0B!
08
b100000000 Q
02
0M!
0:
0[
0`
0?
#50
b11111111111111111111111111111100 l
b11111111111111111111111111111100 +
b1111111100 7
b11111111111111111111111111111100 H!
b11111111111111111111111111111100 K!
#60
b0 x
b0 g
b0 G!
b0 Y!
b1000 V!
b0 $!
b0 J!
0G
b0 %!
#69
0;
#80
1C!
0m!
0o
0U
0T!
0.
1P
1^!
1J
0D
1$
0I!
1[
1:
1M!
#90
b0 K!
b0 l
1&
b1 B
b0 H!
1`
b0 +
1E!
b0 7
18
19
#100
b100 %!
b100 G!
b100 x
b100 g
b100 Y!
b100 $!
b100 J!
#120
0M!
0C!
0J
0P
0^!
0:
0[
0$
#160
1$
1P
1>
1?
1L
b0 '
1J
1M!
b0 =
1C!
1[
b0 H
1)
1K
1I
b1 E
1:
1^!
1(
#200
0$
0P
0M!
0J
0^!
0[
0C!
0:
#240
1:
1M!
1P
1$
1C!
1^!
1J
1[
#280
0[
0P
0M!
0:
0J
0C!
0$
0^!
#320
1^!
1M!
1P
1[
1$
1J
1:
1C!
#360
0C!
0P
0M!
0^!
0:
0$
0[
0J
#400
1J
1M!
1P
1C!
1[
1:
1^!
1$
#440
0$
0P
0M!
0J
0^!
0[
0C!
0:
#480
1:
1M!
1P
1$
1C!
1^!
1J
1[
#520
0[
0P
0M!
0:
0J
0C!
0$
0^!
#560
1^!
1M!
1P
1[
1$
1J
1:
1C!
#600
0C!
0P
0M!
0^!
0:
0$
0[
0J
#640
1J
1M!
bx00000100 M
bx00000100 *
1P
bx00000100 @
1C!
1[
1:
1^!
1$
#680
0$
0M!
0J
0P
0^!
0[
0C!
0:
#720
1:
1J
1$
1M!
1C!
1^!
1P
1[
#760
0[
0$
0:
0J
0P
0C!
0M!
0^!
#800
1^!
1:
1[
1$
1M!
1P
1J
1C!
#840
0C!
0[
0^!
0:
0J
0M!
0$
0P
#880
1P
1^!
1C!
1[
1$
1J
1:
1M!
#920
0M!
0C!
0P
0^!
0:
0$
0[
0J
#960
1J
1P
1M!
1C!
1[
1:
1^!
1$
#1000
0$
0M!
0J
0P
0^!
0[
0C!
0:
#1040
1:
1J
1$
bx0000000000000100 @
1M!
bx0000000000000100 M
bx0000000000000100 *
1C!
1^!
1P
1[
#1080
0[
0J
0:
0M!
0$
0P
0C!
0^!
#1120
1^!
1M!
1[
1:
1J
1C!
1$
1P
#1160
0P
0:
0^!
0[
0M!
0$
0J
0C!
#1200
1C!
1[
1P
1^!
1:
1J
1M!
1$
#1240
0$
0^!
0C!
0P
0[
0M!
0:
0J
#1280
1J
1P
1$
1C!
1^!
1:
1[
1M!
#1320
0M!
0C!
0J
0$
0P
0[
0^!
0:
#1360
1:
1$
1M!
1J
1C!
1^!
1P
1[
#1400
0[
0J
0:
0M!
0$
0P
0C!
0^!
#1440
1^!
1M!
1[
bx000000010000000000000100 M
1:
1J
bx000000010000000000000100 @
1C!
1$
bx000000010000000000000100 *
1P
#1480
0P
0J
0M!
0^!
0:
0[
0C!
0$
#1520
1$
1:
1J
1P
1^!
1M!
1C!
1[
#1560
0[
0^!
0:
0$
0P
0J
0C!
0M!
#1600
1M!
1P
1^!
1[
1$
1:
1C!
1J
#1640
0J
0$
0P
0M!
0[
0^!
0C!
0:
#1680
1:
1[
1$
1J
1M!
1P
1C!
1^!
#1720
0^!
0M!
0[
0:
0J
0$
0C!
0P
#1760
1P
1J
1M!
1^!
1:
1[
1C!
1$
#1800
0$
0:
0J
0P
0^!
0M!
0C!
0[
#1840
1[
1^!
1:
1$
1P
1J
bx00001000000000010000000000000100 M
1C!
bx00001000000000010000000000000100 *
bx00001000000000010000000000000100 @
1M!
#1880
0M!
0J
0^!
0[
0P
0:
0$
0C!
#1920
1C!
1:
1J
1M!
1P
1^!
1[
1$
#1960
0$
0^!
0:
0C!
0P
0J
0M!
0[
#2000
1[
1J
1^!
1$
1P
1:
1C!
1M!
#2040
0M!
0:
0J
0[
0P
0^!
0$
0C!
#2080
1C!
1^!
1:
1M!
1P
1J
1[
1$
#2120
0$
0J
0^!
0C!
0P
0:
0M!
0[
#2160
1[
1:
1J
1$
1P
1^!
1C!
1M!
#2200
0M!
0^!
0:
0[
0P
0J
0$
0C!
#2240
1C!
1J
1^!
1M!
1P
1:
1[
1$
bx0000010100001000000000010000000000000100 @
bx0000010100001000000000010000000000000100 M
bx0000010100001000000000010000000000000100 *
#2280
0:
0J
0C!
0P
0^!
0M!
0$
0[
#2320
1[
1^!
1:
1P
1J
1C!
1$
1M!
#2360
0M!
0J
0[
0P
0^!
0:
0$
0C!
#2400
1C!
1^!
1M!
1P
1J
1[
1$
1:
#2440
0:
0J
0C!
0P
0^!
0M!
0$
0[
#2480
1[
1^!
1:
1P
1J
1C!
1$
1M!
#2520
0M!
0J
0[
0P
0^!
0:
0$
0C!
#2560
1C!
1^!
1M!
1P
1J
1[
1$
1:
#2600
0:
0J
0C!
0P
0^!
0M!
0$
0[
#2640
1[
1^!
1:
bx000000000000010100001000000000010000000000000100 *
1P
1J
1C!
1$
1M!
bx000000000000010100001000000000010000000000000100 M
bx000000000000010100001000000000010000000000000100 @
#2680
0J
0^!
0[
0P
0:
0$
0C!
0M!
#2720
1M!
1P
1J
1[
1^!
1C!
1:
1$
#2760
0$
0[
0M!
0J
0P
0:
0^!
0C!
#2800
1C!
1J
1$
1M!
1[
1^!
1P
1:
#2840
0:
0M!
0C!
0$
0J
0P
0[
0^!
#2880
1^!
1$
1:
1C!
1M!
1[
1J
1P
#2920
0P
0C!
0^!
0:
0$
0J
0M!
0[
#2960
1[
1:
1P
1^!
1C!
1M!
1$
1J
#3000
0J
0^!
0[
0P
0:
0$
0C!
0M!
#3040
1M!
1P
1J
bx00000010000000000000010100001000000000010000000000000100 @
1[
1^!
bx00000010000000000000010100001000000000010000000000000100 *
1C!
1:
bx00000010000000000000010100001000000000010000000000000100 M
1$
#3080
0$
0^!
0P
0M!
0[
0J
0C!
0:
#3120
1:
1[
1^!
1$
1M!
1P
1C!
1J
#3160
0J
0M!
0[
0:
0$
0^!
0C!
0P
#3200
1P
1$
1M!
1J
1:
1[
1C!
1^!
#3240
0^!
0:
0$
0P
0J
0M!
0C!
0[
#3280
1[
1J
1:
1^!
1P
1$
1C!
1M!
#3320
0M!
0P
0J
0[
0^!
0:
0C!
0$
#3360
1$
1^!
1P
1M!
1[
1J
1C!
1:
#3400
0:
0[
0^!
0$
0M!
0P
0C!
0J
#3440
1J
1M!
1[
1:
1$
1^!
bx0000100000000010000000000000010100001000000000010000000000000100 @
1C!
bx0000100000000010000000000000010100001000000000010000000000000100 M
bx0000100000000010000000000000010100001000000000010000000000000100 *
1P
#3480
0P
0^!
0M!
0J
0$
0[
0:
0C!
#3520
1C!
1[
1^!
1P
1$
1M!
1J
1:
#3560
0:
0M!
0[
0C!
0$
0^!
0P
0J
#3600
1J
1^!
1M!
1:
1$
1[
1C!
1P
#3640
0P
0[
0^!
0J
0$
0M!
0:
0C!
#3680
1C!
1M!
1[
1P
1$
1^!
1J
1:
#3720
0:
0^!
0M!
0C!
0$
0[
0P
0J
#3760
1J
1[
1^!
1:
1$
1M!
1C!
1P
#3800
0P
0M!
0[
0J
0$
0^!
0:
0C!
#3840
1C!
1^!
1M!
1P
1$
1[
1J
1:
bx000000010000100000000010000000000000010100001000000000010000000000000100 *
bx000000010000100000000010000000000000010100001000000000010000000000000100 @
bx000000010000100000000010000000000000010100001000000000010000000000000100 M
#3880
0[
0^!
0C!
0$
0M!
0P
0:
0J
#3920
1J
1M!
1[
1$
1^!
1C!
1:
1P
#3960
0P
0^!
0J
0$
0M!
0[
0:
0C!
#4000
1C!
1M!
1P
1$
1^!
1J
1:
1[
#4040
0[
0^!
0C!
0$
0M!
0P
0:
0J
#4080
1J
1M!
1[
1$
1^!
1C!
1:
1P
#4120
0P
0^!
0J
0$
0M!
0[
0:
0C!
#4160
1C!
1M!
1P
1$
1^!
1J
1:
1[
#4200
0[
0^!
0C!
0$
0M!
0P
0:
0J
#4240
1J
1M!
1[
bx00000010000000010000100000000010000000000000010100001000000000010000000000000100 M
1$
1^!
1C!
1:
1P
bx00000010000000010000100000000010000000000000010100001000000000010000000000000100 @
bx00000010000000010000100000000010000000000000010100001000000000010000000000000100 *
#4280
0^!
0M!
0J
0$
0[
0:
0C!
0P
#4320
1P
1$
1^!
1J
1M!
1C!
1[
1:
#4360
0:
0J
0P
0^!
0$
0[
0M!
0C!
#4400
1C!
1^!
1:
1P
1J
1M!
1$
1[
#4440
0[
0P
0C!
0:
0^!
0$
0J
0M!
#4480
1M!
1:
1[
1C!
1P
1J
1^!
1$
#4520
0$
0C!
0M!
0[
0:
0^!
0P
0J
#4560
1J
1[
1$
1M!
1C!
1P
1:
1^!
#4600
0^!
0M!
0J
0$
0[
0:
0C!
0P
#4640
1P
1$
1^!
bx0000000000000010000000010000100000000010000000000000010100001000000000010000000000000100 *
1J
1M!
bx0000000000000010000000010000100000000010000000000000010100001000000000010000000000000100 M
1C!
1[
bx0000000000000010000000010000100000000010000000000000010100001000000000010000000000000100 @
1:
#4680
0:
0M!
0$
0P
0J
0^!
0C!
0[
#4720
1[
1J
1M!
1:
1P
1$
1C!
1^!
#4760
0^!
0P
0J
0[
0:
0M!
0C!
0$
#4800
1$
1:
1P
1^!
1[
1J
1C!
1M!
#4840
0M!
0[
0:
0$
0^!
0P
0C!
0J
#4880
1J
1^!
1[
1M!
1$
1:
1C!
1P
#4920
0P
0$
0^!
0J
0M!
0[
0C!
0:
#4960
1:
1M!
1$
1P
1J
1^!
1C!
1[
#5000
0[
0J
0M!
0:
0P
0$
0C!
0^!
#5040
1^!
1P
1J
1[
1:
1M!
bx001010000000000000000010000000010000100000000010000000000000010100001000000000010000000000000100 *
1C!
bx001010000000000000000010000000010000100000000010000000000000010100001000000000010000000000000100 @
bx001010000000000000000010000000010000100000000010000000000000010100001000000000010000000000000100 M
1$
#5080
0$
0M!
0P
0^!
0:
0J
0[
0C!
#5120
1C!
1J
1M!
1$
1:
1P
1^!
1[
#5160
0[
0P
0J
0C!
0:
0M!
0$
0^!
#5200
1^!
1M!
1P
1[
1:
1J
1C!
1$
#5240
0$
0J
0M!
0^!
0:
0P
0[
0C!
#5280
1C!
1P
1J
1$
1:
1M!
1^!
1[
#5320
0[
0M!
0P
0C!
0:
0J
0$
0^!
#5360
1^!
1J
1M!
1[
1:
1P
1C!
1$
#5400
0$
0P
0J
0^!
0:
0M!
0[
0C!
#5440
1C!
1M!
1P
1$
1:
1J
1^!
1[
bx00001001001010000000000000000010000000010000100000000010000000000000010100001000000000010000000000000100 M
bx00001001001010000000000000000010000000010000100000000010000000000000010100001000000000010000000000000100 *
bx00001001001010000000000000000010000000010000100000000010000000000000010100001000000000010000000000000100 @
#5480
0J
0M!
0C!
0:
0P
0$
0[
0^!
#5520
1^!
1P
1J
1:
1M!
1C!
1[
1$
#5560
0$
0M!
0^!
0:
0P
0J
0[
0C!
#5600
1C!
1P
1$
1:
1M!
1^!
1[
1J
#5640
0J
0M!
0C!
0:
0P
0$
0[
0^!
#5680
1^!
1P
1J
1:
1M!
1C!
1[
1$
#5720
0$
0M!
0^!
0:
0P
0J
0[
0C!
#5760
1C!
1P
1$
1:
1M!
1^!
1[
1J
#5800
0J
0M!
0C!
0:
0P
0$
0[
0^!
#5840
1^!
1P
1J
bx0000000100001001001010000000000000000010000000010000100000000010000000000000010100001000000000010000000000000100 @
1:
1M!
1C!
1[
1$
bx0000000100001001001010000000000000000010000000010000100000000010000000000000010100001000000000010000000000000100 *
bx0000000100001001001010000000000000000010000000010000100000000010000000000000010100001000000000010000000000000100 M
#5880
0M!
0P
0^!
0:
0J
0[
0C!
0$
#5920
1$
1:
1M!
1^!
1P
1C!
1J
1[
#5960
0[
0^!
0$
0M!
0:
0J
0P
0C!
#6000
1C!
1M!
1[
1$
1^!
1P
1:
1J
#6040
0J
0$
0C!
0[
0M!
0:
0^!
0P
#6080
1P
1[
1J
1C!
1$
1^!
1M!
1:
#6120
0:
0C!
0P
0J
0[
0M!
0$
0^!
#6160
1^!
1J
1:
1P
1C!
1$
1[
1M!
#6200
0M!
0P
0^!
0:
0J
0[
0C!
0$
#6240
1$
1:
1M!
bx000000000000000100001001001010000000000000000010000000010000100000000010000000000000010100001000000000010000000000000100 M
1^!
1P
bx000000000000000100001001001010000000000000000010000000010000100000000010000000000000010100001000000000010000000000000100 @
1C!
1J
bx000000000000000100001001001010000000000000000010000000010000100000000010000000000000010100001000000000010000000000000100 *
1[
#6280
0[
0P
0:
0$
0^!
0M!
0C!
0J
#6320
1J
1^!
1P
1[
1$
1:
1C!
1M!
#6360
0M!
0$
0^!
0J
0[
0P
0C!
0:
#6400
1:
1[
1$
1M!
1J
1^!
1C!
1P
#6440
0P
0J
0[
0:
0M!
0$
0C!
0^!
#6480
1^!
1M!
1J
1P
1:
1[
1C!
1$
#6520
0$
0:
0M!
0^!
0P
0J
0C!
0[
#6560
1[
1P
1:
1$
1^!
1M!
1C!
1J
#6600
0J
0^!
0P
0[
0$
0:
0C!
0M!
#6640
1M!
1$
1^!
1J
0(
0?
bx =
0>
1[
1P
bx '
0L
b101000000000000000000100001001001010000000000000000010000000010000100000000010000000000000010100001000000000010000000000000100 M
1C!
b101000000000000000000100001001001010000000000000000010000000010000100000000010000000000000010100001000000000010000000000000100 *
b101000000000000000000100001001001010000000000000000010000000010000100000000010000000000000010100001000000000010000000000000100 @
0K
0)
bx H
b0 B
1:
b11 E
0I
#6660
b0 F
1G
b1000000000010000000000000100 A
#6669
b0 X!
b1000000000010000000000000100 %
b1000000000010000000000000100 D!
b1 6!
b100 ;!
1;
b0 A!
b100 _
b100 }
b100 k
b100 S!
b1000000000010000000000000100 C
b1 ]
b1000000000010000000000000100 ^
b0 w
b100 8!
b0 Q!
b0 i
b1 N!
b1000000000010000000000000100 7!
b0 :!
#6679
1@!
1s
0*!
b0 .!
0=!
09!
0r
b0 4!
0,
1"!
0k!
b100 !!
0&!
0q!
1U!
b0 q
0m
0Y
0|
0a
1>!
0e
b100 c
0F!
0?!
1v
0<!
0/
05!
0u
b100 ,!
#6680
0^!
0$
0M!
0J
0[
0P
0C!
0:
#6689
b0 {
b0 z
b100 (!
0/!
b0 0
b100 p
b0 h
b0 P!
b100 d
b0 r!
b0 Z!
b100 W!
b100 "
b0 b
b100 \!
b100 #!
0t
b0 R!
b100 f
b0 ~
b0 j
b0 +!
b100 O!
b100 )!
b0x00 1!
b100 -!
b100 2!
bx1xx 3!
#6699
b100 3!
b0 y
b0 [!
0`!
0p!
b0 \
b0 1!
#6708
0a!
#6709
b100 0!
#6720
1[
1$
1:
0&
1^!
09
1J
1M!
0`
1C!
08
b0 E
1P
0E!
#6730
1E!
1&
b100 K!
19
b100 l
1`
b100 H!
b100 +
b100 7
18
#6740
b1000 G!
b1000000000100000000000000101 %
b101 ,!
b101 _
b1000 J!
b1000000000100000000000000101 ^
b1000000000100000000000000101 A
b10 6!
b1000000000100000000000000101 D!
b1000 g
b1000 %!
b101 ;!
b101 k
b1000 x
b101 }
b101 !!
b10 ]
b1000000000100000000000000101 C
b101 S!
b1000000000100000000000000101 7!
b101 c
b1000 $!
b10 N!
b1000 Y!
b101 8!
#6750
b101 (!
b101 3!
b101 d
b101 p
b101 "
b101 \!
b101 2!
b101 -!
b101 O!
b101 )!
#6760
b101 0!
0J
0[
0:
0$
b1000 W!
b1000 #!
0^!
b1000 f
0P
0M!
0C!
#6800
1C!
1[
0E!
08
09
1J
0&
1$
1:
1M!
1P
1^!
0`
#6810
1`
18
1E!
1&
b1000 K!
19
b1000 l
b1000 7
b1000 +
b1000 H!
#6820
b1100 g
b1 _
b10 :!
b1100 G!
b1 ,!
b101000000000000000001000000001 %
b101000000000000000001000000001 D!
b101000000000000000001000000001 ^
b1100 J!
b1 8!
b0 6!
b101000000000000000001000000001 C
b101000000000000000001000000001 A
b1100 x
b0 ]
b1 k
b1 ;!
b1100 %!
b1 !!
b1 }
b1100 Y!
b101000000000000000001000000001 7!
b1 S!
b1 c
b0 N!
b1100 $!
b10 i
b10 Q!
#6830
b1 )!
b1 3!
b100 z
b100 {
b1 "
0s
b1 (!
1=!
b101 0
b101 P!
b101 h
1r
1Z
b100 R!
1q!
b1 j!
b101 r!
1L!
b1 p
b100 Z!
1]!
1#
b1 d
b100 b
0U!
b100 ~
b1 O!
0>!
b100 j
b1 -!
1B!
b101 +!
1/
b1 2!
b1 \!
#6840
0C!
0[
b1 1!
b1100 #!
b101 3!
0$
b11111100 [!
b1100 W!
0J
b11111100 y
0^!
0M!
0:
b1100 f
b11111100 \
0P
#6850
b110 0!
#6880
1P
1J
1[
b0 1
bx X
1C!
0`
1O
b1 n!
08
0&
b0 d!
1f!
1$
0E!
bx i!
1e!
1M!
b0 N
1R
09
1S
1^!
13
bx 6
1:
12
#6920
0P
0[
0J
0C!
0$
0:
0^!
0M!
#6960
1M!
1C!
1[
1P
1J
1^!
1:
1$
#7000
0$
0P
0C!
0M!
0[
0:
0^!
0J
#7040
1J
1M!
1P
1$
1C!
1^!
1:
1[
#7080
0[
0$
0M!
0J
0P
0:
0^!
0C!
#7120
1C!
1J
1$
1[
1M!
1^!
1:
1P
#7160
0P
0[
0J
0C!
0$
0:
0^!
0M!
#7200
1M!
1C!
1[
1P
1J
1^!
1:
1$
#7240
0$
0P
0C!
0M!
0[
0:
0^!
0J
#7280
1J
1M!
1P
1$
1C!
1^!
1:
1[
#7320
0[
0$
0M!
0J
0P
0:
0^!
0C!
#7360
1C!
1J
1$
1[
1M!
bx00000000 g!
1^!
1:
1P
bx00000000 4
bx00000000 T
#7400
0M!
0J
0C!
0[
0$
0P
0^!
0:
#7440
1:
1[
1M!
1C!
1J
1^!
1P
1$
#7480
0$
0C!
0:
0M!
0[
0P
0^!
0J
#7520
1J
1M!
1$
1:
1C!
1^!
1P
1[
#7560
0[
0:
0J
0$
0M!
0P
0^!
0C!
