2-Building a Memory Hierarchy/e16025_lab6_part2/SCREENSHOTS and VCD files/wavedata.vcd
$date
	Fri Jun 19 02:18:24 2020
$end
$version
	GTKWave Analyzer v3.3.100 (w)1999-2019 BSI
$end
$timescale
	100ps
$end
$scope module testbench $end
$var wire 1 . mem_read $end
$var wire 6 , mem_address[5:0] $end
$var wire 32 % INSTRUCTION[31:0] $end
$var wire 1 * WRITE $end
$var wire 8 + WRITEDATA[7:0] $end
$var wire 32 & PC[31:0] $end
$var wire 8 " ADDRESS[7:0] $end
$var wire 1 ) RESET $end
$scope module MYIntrucMemRead $end
$var wire 32 4 WORD[31:0] $end
$var wire 32 3 PC[31:0] $end
$var wire 32 2 INSTRUCTION[31:0] $end
$upscope $end
$var wire 32 1 mem_writedata[31:0] $end
$var wire 32 / mem_readdata[31:0] $end
$var wire 1 # BUSYWAIT $end
$var wire 1 - mem_busywait $end
$var wire 8 ( READDATA[7:0] $end
$var wire 1 $ CLK $end
$var wire 1 ' READ $end
$var wire 1 0 mem_write $end
$scope module mycpu $end
$var wire 1 \ imm_signal $end
$var wire 32 ^ pcnew[31:0] $end
$var wire 32 L Next4plusPC[31:0] $end
$var wire 1 B CLK $end
$var wire 8 F Immediate[7:0] $end
$var wire 3 D IN2address[2:0] $end
$upscope $end
$scope module my_datamem $end
$var wire 1 = write $end
$upscope $end
$scope module mycpu $end
$var wire 3 O OUT1address[2:0] $end
$upscope $end
$scope module my_datamem $end
$var wire 1 : readaccess $end
$upscope $end
$scope module mycpu $end
$var wire 1 X WRITE $end
$upscope $end
$scope module my_datamem $end
$var wire 32 ; readdata[31:0] $end
$var wire 32 ? writedata[31:0] $end
$var wire 32 8 i $end
$upscope $end
$scope module mycpu $end
$var wire 1 U RESET $end
$var wire 32 M NextPC[31:0] $end
$var wire 3 Q OUT2address[2:0] $end
$var wire 8 J MUX3OUT[7:0] $end
$var wire 1 S READ $end
$upscope $end
$scope module my_datamem $end
$var wire 6 5 address[5:0] $end
$var wire 1 6 busywait $end
$upscope $end
$scope module mydatacache $end
$var wire 1 F! hit $end
$upscope $end
$scope module mycpu $end
$var wire 8 V RESULT[7:0] $end
$upscope $end
$scope module my_datamem $end
$var wire 1 > writeaccess $end
$upscope $end
$scope module mycpu $end
$var wire 8 ] offset[7:0] $end
$var wire 1 Z ZERO $end
$upscope $end
$scope module my_datamem $end
$var wire 1 7 clock $end
$upscope $end
$scope module mycpu $end
$var wire 1 Y WRITEENABLE $end
$upscope $end
$scope module my_datamem $end
$var wire 1 < reset $end
$upscope $end
$scope module mycpu $end
$var wire 3 W SELECT[2:0] $end
$var wire 32 E INSTRUCTION[31:0] $end
$var wire 8 T READDATA[7:0] $end
$var wire 8 N OUT1[7:0] $end
$var wire 8 I MUX2OUT[7:0] $end
$var wire 1 K MUX3_Select $end
$var wire 8 H MUX1OUT[7:0] $end
$var wire 32 R PC[31:0] $end
$var wire 8 P OUT2[7:0] $end
$upscope $end
$scope module my_datamem $end
$var wire 1 9 read $end
$upscope $end
$scope module mycpu $end
$var wire 1 [ compli_signal $end
$var wire 1 G JUMP $end
$scope module MUX1 $end
$var wire 8 a OUT[7:0] $end
$upscope $end
$scope module MYcu $end
$var wire 8 | Immediate[7:0] $end
$upscope $end
$scope module MUX4 $end
$var wire 8 k INPUT1[7:0] $end
$upscope $end
$scope module MYalu $end
$var wire 8 t addres[7:0] $end
$upscope $end
$scope module MYcu $end
$var wire 3 !! OUT2address[2:0] $end
$var wire 1 "! READ $end
$upscope $end
$scope module MUX2 $end
$var wire 8 d INPUT2[7:0] $end
$upscope $end
$scope module MYalu $end
$var wire 8 p DATA2[7:0] $end
$upscope $end
$scope module MYcu $end
$var wire 1 %! compli_signal $end
$var wire 1 #! WRITE $end
$upscope $end
$scope module MYalu $end
$var wire 8 w orres[7:0] $end
$upscope $end
$scope module MYcu $end
$var wire 1 $! WRITEENABLE $end
$var wire 1 y BRANCH $end
$upscope $end
$scope module MUX4 $end
$var wire 8 l INPUT2[7:0] $end
$upscope $end
$scope module MUX3 $end
$var wire 32 g INPUT1[31:0] $end
$upscope $end
$scope module MUX2 $end
$var wire 8 c INPUT1[7:0] $end
$upscope $end
$scope module MUX3 $end
$var wire 32 h INPUT2[31:0] $end
$upscope $end
$scope module MUX1 $end
$var wire 8 ` INPUT2[7:0] $end
$upscope $end
$scope module MYalu $end
$var wire 8 v forwadres[7:0] $end
$upscope $end
$scope module MYcu $end
$var wire 32 { INSTRUCTION[31:0] $end
$upscope $end
$scope module MYalu $end
$var wire 8 o DATA1[7:0] $end
$upscope $end
$scope module MUX1 $end
$var wire 8 _ INPUT1[7:0] $end
$upscope $end
$scope module MUX3 $end
$var wire 1 j SELECT $end
$upscope $end
$scope module MUX4 $end
$var wire 8 m OUT[7:0] $end
$upscope $end
$scope module MYcu $end
$var wire 3 z IN2address[2:0] $end
$var wire 1 } JUMP $end
$upscope $end
$scope module MUX2 $end
$var wire 1 f SELECT $end
$upscope $end
$scope module MUX3 $end
$var wire 32 i OUT[31:0] $end
$upscope $end
$scope module MYcu $end
$var wire 3 ~ OUT1address[2:0] $end
$upscope $end
$scope module MYalu $end
$var wire 8 u andres[7:0] $end
$upscope $end
$var wire 1 A BUSYWAIT $end
$scope module MYcu $end
$var wire 3 x ALUOP[2:0] $end
$upscope $end
$scope module MYalu $end
$var wire 1 s ZERO $end
$upscope $end
$scope module MUX1 $end
$var wire 1 b SELECT $end
$upscope $end
$scope module MUX2 $end
$var wire 8 e OUT[7:0] $end
$upscope $end
$scope module MYalu $end
$var wire 3 r SELECT[2:0] $end
$var wire 8 q RESULT[7:0] $end
$upscope $end
$var wire 8 C DATA2[7:0] $end
$scope module MUX4 $end
$var wire 1 n SELECT $end
$upscope $end
$var wire 1 @ BRANCH $end
$upscope $end
$scope module mydatacache $end
$var wire 1 C! clock $end
$upscope $end
$scope module mycpu $end
$scope module MYregister1 $end
$var wire 32 ;! i $end
$upscope $end
$scope module MYpcCounter $end
$var wire 32 ,! NextPC[31:0] $end
$upscope $end
$scope module MYpcadder $end
$var wire 32 0! NowPC[31:0] $end
$upscope $end
$scope module MYregister1 $end
$var wire 8 4! IN[7:0] $end
$var wire 3 3! IN2address[2:0] $end
$upscope $end
$scope module MYpcCounter $end
$var wire 32 *! INSTRUCTION[31:0] $end
$upscope $end
$scope module MYregister1 $end
$var wire 3 6! OUT1address[2:0] $end
$var wire 1 9! RESET $end
$var wire 8 7! OUT2[7:0] $end
$upscope $end
$upscope $end
$scope module mydatacache $end
$var wire 8 D! dataforcpu[7:0] $end
$upscope $end
$scope module mycpu $end
$scope module mycomp $end
$var wire 8 @! OUT[7:0] $end
$var wire 8 ?! IN[7:0] $end
$upscope $end
$upscope $end
$scope module mydatacache $end
$var wire 32 L! mem_readdata[31:0] $end
$upscope $end
$scope module mycpu $end
$scope module MYregister1 $end
$var wire 3 8! OUT2address[2:0] $end
$upscope $end
$upscope $end
$scope module mydatacache $end
$var wire 8 A! address[7:0] $end
$var wire 1 R! reset $end
$upscope $end
$scope module mycpu $end
$scope module MYpcCounter $end
$var wire 1 +! JUMP $end
$var wire 32 -! PC[31:0] $end
$upscope $end
$scope module MYregister1 $end
$var wire 1 2! CLK $end
$var wire 8 5! OUT1[7:0] $end
$upscope $end
$upscope $end
$scope module mydatacache $end
$var wire 1 E! dirtynow $end
$upscope $end
$scope module mycpu $end
$scope module MYpcCounter $end
$var wire 1 )! CLK $end
$var wire 1 .! RESET $end
$upscope $end
$upscope $end
$scope module mydatacache $end
$var wire 1 J! mem_busywait $end
$upscope $end
$scope module mycpu $end
$scope module MYpcCounter $end
$var wire 1 (! BUSYWAIT $end
$upscope $end
$scope module MYcu $end
$var wire 8 '! offset[7:0] $end
$upscope $end
$scope module MYregister1 $end
$var wire 1 1! BUSYWAIT $end
$upscope $end
$upscope $end
$scope module mydatacache $end
$var wire 3 T! tagIn[2:0] $end
$upscope $end
$scope module mycpu $end
$scope module PCOffsetter1 $end
$var wire 8 =! OFFSET[7:0] $end
$upscope $end
$scope module MYregister1 $end
$var wire 1 :! WRITEENABLE $end
$upscope $end
$upscope $end
$scope module mydatacache $end
$var wire 1 P! read $end
$var wire 1 U! validnow $end
$upscope $end
$scope module mycpu $end
$scope module PCOffsetter1 $end
$var wire 32 >! next4pc[31:0] $end
$upscope $end
$upscope $end
$scope module mydatacache $end
$var wire 1 V! write $end
$upscope $end
$scope module mycpu $end
$scope module MYcu $end
$var wire 1 &! imm_signal $end
$upscope $end
$scope module MYpcadder $end
$var wire 32 /! NextPC[31:0] $end
$upscope $end
$scope module PCOffsetter1 $end
$var wire 32 <! Next4plusPC[31:0] $end
$upscope $end
$upscope $end
$scope module mydatacache $end
$var wire 8 W! writedata[7:0] $end
$var wire 1 B! busywait $end
$var wire 2 S! state[1:0] $end
$var wire 32 H! j $end
$var wire 6 I! mem_address[5:0] $end
$var wire 8 Q! readdata[7:0] $end
$var wire 1 K! mem_read $end
$var wire 2 O! next_state[1:0] $end
$var wire 1 M! mem_write $end
$var wire 32 G! i $end
$var wire 32 N! mem_writedata[31:0] $end
$upscope $end
$upscope $end
$enddefinitions $end
$dumpvars
#0
x1!
bx e
x6
bx H!
xU!
bx !!
x*
x.
bx ,
bx 8
0)
bx (
bx d
x"!
bx T!
bx =!
0U
x:!
xP!
bx S!
x%!
xV!
bx >!
bx p
bx M
x&!
1$
bx w
x#!
bx /!
bx <!
bx Q
bx W!
xB!
bx `
bx G!
xy
bx Q!
x$!
bx I!
bx J
bx 4
x'
xM!
bx O!
xK!
bx l
bx h
bx N!
xS
bx g
bx 5
bx c
x0
0<
x}
bx o
bx +
bx v
bx {
xF!
bx 3
x\
bx z
xj
bx _
bx V
x>
bx m
bx ^
xb
bx ~
bx i
bx ]
xf
xZ
bx 2
bx L
xs
xA
bx u
17
xY
bx x
1B
bx '!
bx R
bx ;!
bx q
bx &
bx r
bx %
bx W
bx 1
bx F
1C!
xn
bx C
bx E
bx T
x@
bx D
bx 7!
bx 4!
bx 0!
bx N
bx ,!
bx I
bx /
x=
09!
bx *!
bx 3!
xK
bx H
bx 6!
bx O
bx t
x+!
bx ?!
bx "
bx D!
bx @!
bx P
x#
x:
0R!
bx 8!
bx L!
x9
x[
bx A!
xX
x(!
bx 5!
12!
xG
bx -!
bx a
x-
bx ;
xJ!
1)!
xE!
bx |
bx k
0.!
bx ?
#40
b0xxxxxxxx ?
06
01!
b1000 H!
b100000000 8
0.
1)
1U
b0 S!
0$
0B!
b1000 G!
0K!
0M!
b0 O!
b0xxxxxxxx N!
1<
00
07
0>
0A
1.!
0B
b0xxxxxxxx 1
0C!
0=
19!
09
0#
0:
1R!
02!
0(!
0-
0)!
0J!
#50
b11111111111111111111111111111100 3
b11111111111111111111111111111100 R
b11111111111111111111111111111100 &
b11111111111111111111111111111100 0!
b11111111111111111111111111111100 -!
#60
b0 /!
b0 M
b0 >!
b0 h
b0 ^
b0 i
b1000 ;!
b0 ,!
#80
0)
0U
1$
17
0<
1)!
1C!
0.!
1B
09!
12!
0R!
#90
b0 -!
b1000000000010000000000000100 4
b0 R
b0 0!
b0 3
b0 &
#100
b100 M
b100 ,!
b100 /!
b100 ^
b100 h
b100 >!
b100 i
#110
b100 !!
b0 =!
b100 Q
b100 c
b1000000000010000000000000100 {
b1 z
b0 ]
b0 ~
b1000000000010000000000000100 2
b1000000000010000000000000100 E
b0 '!
b1000000000010000000000000100 %
b100 F
b1 D
b1000000000010000000000000100 *!
b1 3!
b0 6!
b0 O
b100 8!
b100 |
#120
0*
b100 e
b100 <!
b0 x
0"!
0V!
1:!
0P!
0%!
b100 p
0#!
1&!
b100 g
0'
0y
07
1$!
0S
0$
1Y
0}
1\
0j
0b
1f
b100 L
b0 r
0C!
b0 W
0n
0@
0)!
b100 I
0K
02!
0+!
0B
0X
0[
0G
#130
b0 d
bx1xx w
b0 W!
b0 `
b100 J
b100 l
b100 V
b100 v
b0 +
b0 o
b100 m
0Z
b0x00 u
0s
b100 q
b0 H
b0 N
b0 7!
b100 4!
b100 "
b0 ?!
b0 P
b100 A!
b0 5!
b0 a
#140
b0 u
0U!
b100 w
b0 _
b0 C
b0 @!
0E!
#149
0F!
#150
b100 t
#160
17
1$
1)!
1C!
1B
12!
#170
b100 -!
b100 &
b100 R
b100 3
b1000000000100000000000000101 4
b100 0!
#180
b1000 h
b1000 ,!
b1000 i
b1000 M
b1000 ^
b1000 /!
b1000 >!
#190
b101 !!
b101 |
b101 e
b101 p
b101 Q
b10 z
b101 c
b1000000000100000000000000101 {
b1000000000100000000000000101 E
b10 D
b101 I
b1000000000100000000000000101 2
b101 8!
b101 F
b1000000000100000000000000101 %
b10 3!
b1000000000100000000000000101 *!
#200
02!
b1000 <!
07
b1000 g
b101 l
b101 J
b101 w
b101 V
b101 m
b101 v
0$
0B
b1000 L
b101 q
0C!
b101 A!
b101 4!
0)!
b101 "
#210
b101 t
#240
12!
17
1)!
1B
1$
1C!
#250
b1000 -!
b1000 0!
b101000000000000000001000000001 4
b1000 R
b1000 &
b1000 3
#260
b1100 ,!
b1100 >!
b1100 ^
b1100 h
b1100 M
b1100 i
b1100 /!
#270
b1 c
b10 ~
b1 |
b1 !!
b101000000000000000001000000001 *!
b0 z
b1 e
b1 Q
b1 p
b0 D
b0 3!
b101000000000000000001000000001 E
b1 8!
b101000000000000000001000000001 {
b101000000000000000001000000001 2
b1 I
b101000000000000000001000000001 %
b1 F
b10 O
b10 6!
#280
11!
b1 "
1*
0C!
0:!
1V!
b1100 <!
02!
1#!
1B!
b1 m
0Y
0$!
b1 l
b1 V
b1100 g
b1 O!
b1 w
b1 J
0)!
b1 v
0$
1A
07
1X
0B
b1 q
b1100 L
b1 4!
b1 A!
1#
1(!
#290
b100 `
b100 a
b100 d
b101 W!
b1 t
b101 o
b101 +
b101 N
b100 H
b101 5!
b100 7!
b100 P
b100 ?!
#300
b1 u
b101 w
b11111100 C
b11111100 @!
b11111100 _
#310
b110 t
#320
12!
b0 5
16
b0 ,
bx ?
1.
1J!
1C!
b0 I!
1K!
b1 S!
bx N!
1$
1)!
bx 1
17
19
1B
1-
1:
#360
02!
0C!
0$
0B
0)!
07
#400
17
12!
1)!
1B
1C!
1$
#440
0$
07
0C!
0B
02!
0)!
#480
1)!
1$
12!
1B
17
1C!
#520
0C!
0)!
07
0B
0$
02!
#560
12!
1C!
1$
1B
1)!
17
#600
07
02!
0)!
0B
0C!
0$
#640
1$
17
1C!
1B
12!
1)!
#680
0)!
0$
02!
0B
07
0C!
#720
1C!
1)!
17
1B
1$
12!
#760
02!
0C!
0$
0B
0)!
07
#800
17
12!
1)!
bx00000000 /
1B
1C!
bx00000000 L!
1$
bx00000000 ;
#840
07
0$
02!
0)!
0C!
0B
#880
1B
1C!
17
1)!
12!
1$
#920
0$
02!
0B
0)!
07
0C!
#960
1C!
17
1$
1)!
1B
12!
#1000
02!
0B
0C!
0)!
0$
07
#1040
17
1$
12!
1)!
1C!
1B
#1080
0B
0C!
07
0)!
02!
0$
#1120
1$
12!
1B
1)!
17
1C!
#1160
0C!
07
0$
0)!
0B
02!
#1200
12!
bx0000000000000000 ;
1B
1C!
1)!
bx0000000000000000 L!
bx0000000000000000 /
1$
17
#1240
07
02!
0$
0C!
0B
0)!
#1280
1)!
17
1B
1C!
12!
1$
#1320
0$
0)!
02!
0C!
07
0B
#1360
1B
1$
17
1C!
1)!
12!
#1400
02!
0B
0)!
0C!
0$
07
#1440
17
12!
1$
1C!
1B
1)!
#1480
0)!
07
0B
0C!
02!
0$
#1520
1$
1)!
12!
1C!
17
1B
#1560
0B
0$
07
0C!
0)!
02!
#1600
12!
1B
1)!
bx000000000000000000000000 ;
1C!
1$
bx000000000000000000000000 /
17
bx000000000000000000000000 L!
#1640
02!
07
0B
0)!
0$
0C!
#1680
1C!
1$
12!
1)!
1B
17
#1720
07
0B
0C!
0)!
02!
0$
#1760
1$
12!
17
1)!
1C!
1B
#1800
0B
0C!
0$
0)!
07
02!
#1840
12!
17
1B
1)!
1$
1C!
#1880
0C!
0$
02!
0)!
0B
07
#1920
17
1B
1C!
1)!
12!
1$
#1960
0$
02!
07
0)!
0C!
0B
#2000
1B
b0 L!
0:
bx I!
bx ,
06
bx 5
b11 S!
0J!
0.
0K!
b0 O!
1C!
1$
0-
1)!
b0 /
b0 ;
17
12!
09
#2020
b0 T!
1U!
b0 D!
#2029
1F!
#2039
1E!
#2040
0B
0C!
02!
07
0$
0)!
#2080
1)!
b0 S!
01!
b0xxxxxxxx ?
0(!
0B!
1$
b0xxxxxxxx N!
0#
17
1C!
1B
0A
12!
b0xxxxxxxx 1
#2090
b1100 3
b1100 -!
b101000000000000000000100001001 4
b1100 &
b1100 0!
b1100 R
#2100
b10000 >!
b10000 /!
b10000 M
b10000 ,!
b10000 h
b10000 ^
b10000 i
b101 D!
#2110
b1001 |
b1 6!
b1001 c
b1 ~
b1001 e
b101000000000000000000100001001 *!
b101000000000000000000100001001 {
b1 O
b1001 p
b101000000000000000000100001001 E
b101000000000000000000100001001 2
b1001 F
b1001 I
b101000000000000000000100001001 %
#2120
1(!
11!
b1001 "
b10000 <!
0)!
b1001 l
b1001 m
b1001 V
b10000 g
02!
b1001 J
0$
1B!
b1001 v
07
b1001 A!
1A
1#
0B
b1101 w
b1001 q
0C!
b1001 4!
b10000 L
#2130
0E!
b1110 t
bx T!
bx D!
b100 o
b100 W!
b100 N
b100 +
0U!
b100 5!
#2139
0F!
b1 O!
#2140
b0 u
#2150
b1101 t
#2160
b10 I!
bx 1
1:
b1 S!
1K!
b10 5
b10 ,
16
bx ?
1.
19
1J!
1)!
1$
12!
17
1-
bx N!
1C!
1B
